Data/032021/ALL0003/F0003CH1.CSV

Record Length,2.500000e+03,,   0.118350000000,   1.62320,
Sample Interval,1.000000e-06,,   0.118351000000,   1.62320,
Trigger Point,-1.183500000000e+05,,   0.118352000000,   1.62340,
,,,   0.118353000000,   1.62340,
,,,   0.118354000000,   1.62340,
,,,   0.118355000000,   1.62340,
Source,CH1,,   0.118356000000,   1.62340,
Vertical Units,V,,   0.118357000000,   1.62340,
Vertical Scale,5.000000e-03,,   0.118358000000,   1.62340,
Vertical Offset,-1.607000e+00,,   0.118359000000,   1.62320,
Horizontal Units,s,,   0.118360000000,   1.62340,
Horizontal Scale,2.500000e-04,,   0.118361000000,   1.62340,
Pt Fmt,Y,,   0.118362000000,   1.62320,
Yzero,0.000000e+00,,   0.118363000000,   1.62340,
Probe Atten,1.000000e+00,,   0.118364000000,   1.62340,
Model Number,TDS2002C,,   0.118365000000,   1.62320,
Serial Number,C013408,,   0.118366000000,   1.62320,
Firmware Version,FV:v24.15,,   0.118367000000,   1.62320,
,,,0.118368000000,   1.62320,
,,,0.118369000000,   1.62340,
,,,0.118370000000,   1.62320,
,,,0.118371000000,   1.62320,
,,,0.118372000000,   1.62320,
,,,0.118373000000,   1.62340,
,,,0.118374000000,   1.62340,
,,,0.118375000000,   1.62320,
,,,0.118376000000,   1.62320,
,,,0.118377000000,   1.62340,
,,,0.118378000000,   1.62320,
,,,0.118379000000,   1.62320,
,,,0.118380000000,   1.62340,
,,,0.118381000000,   1.62320,
,,,0.118382000000,   1.62320,
,,,0.118383000000,   1.62320,
,,,0.118384000000,   1.62320,
,,,0.118385000000,   1.62320,
,,,0.118386000000,   1.62320,
,,,0.118387000000,   1.62320,
,,,0.118388000000,   1.62320,
,,,0.118389000000,   1.62320,
,,,0.118390000000,   1.62340,
,,,0.118391000000,   1.62320,
,,,0.118392000000,   1.62320,
,,,0.118393000000,   1.62320,
,,,0.118394000000,   1.62320,
,,,0.118395000000,   1.62320,
,,,0.118396000000,   1.62320,
,,,0.118397000000,   1.62320,
,,,0.118398000000,   1.62320,
,,,0.118399000000,   1.62320,
,,,0.118400000000,   1.62320,
,,,0.118401000000,   1.62320,
,,,0.118402000000,   1.62320,
,,,0.118403000000,   1.62320,
,,,0.118404000000,   1.62320,
,,,0.118405000000,   1.62320,
,,,0.118406000000,   1.62320,
,,,0.118407000000,   1.62320,
,,,0.118408000000,   1.62320,
,,,0.118409000000,   1.62320,
,,,0.118410000000,   1.62320,
,,,0.118411000000,   1.62320,
,,,0.118412000000,   1.62320,
,,,0.118413000000,   1.62320,
,,,0.118414000000,   1.62320,
,,,0.118415000000,   1.62320,
,,,0.118416000000,   1.62320,
,,,0.118417000000,   1.62320,
,,,0.118418000000,   1.62320,
,,,0.118419000000,   1.62320,
,,,0.118420000000,   1.62320,
,,,0.118421000000,   1.62320,
,,,0.118422000000,   1.62320,
,,,0.118423000000,   1.62320,
,,,0.118424000000,   1.62300,
,,,0.118425000000,   1.62320,
,,,0.118426000000,   1.62300,
,,,0.118427000000,   1.62300,
,,,0.118428000000,   1.62320,
,,,0.118429000000,   1.62320,
,,,0.118430000000,   1.62300,
,,,0.118431000000,   1.62300,
,,,0.118432000000,   1.62300,
,,,0.118433000000,   1.62300,
,,,0.118434000000,   1.62300,
,,,0.118435000000,   1.62300,
,,,0.118436000000,   1.62300,
,,,0.118437000000,   1.62300,
,,,0.118438000000,   1.62300,
,,,0.118439000000,   1.62300,
,,,0.118440000000,   1.62300,
,,,0.118441000000,   1.62300,
,,,0.118442000000,   1.62300,
,,,0.118443000000,   1.62300,
,,,0.118444000000,   1.62300,
,,,0.118445000000,   1.62300,
,,,0.118446000000,   1.62300,
,,,0.118447000000,   1.62300,
,,,0.118448000000,   1.62300,
,,,0.118449000000,   1.62300,
,,,0.118450000000,   1.62300,
,,,0.118451000000,   1.62300,
,,,0.118452000000,   1.62300,
,,,0.118453000000,   1.62300,
,,,0.118454000000,   1.62300,
,,,0.118455000000,   1.62300,
,,,0.118456000000,   1.62300,
,,,0.118457000000,   1.62300,
,,,0.118458000000,   1.62300,
,,,0.118459000000,   1.62300,
,,,0.118460000000,   1.62300,
,,,0.118461000000,   1.62300,
,,,0.118462000000,   1.62300,
,,,0.118463000000,   1.62300,
,,,0.118464000000,   1.62300,
,,,0.118465000000,   1.62300,
,,,0.118466000000,   1.62300,
,,,0.118467000000,   1.62300,
,,,0.118468000000,   1.62300,
,,,0.118469000000,   1.62300,
,,,0.118470000000,   1.62300,
,,,0.118471000000,   1.62300,
,,,0.118472000000,   1.62300,
,,,0.118473000000,   1.62300,
,,,0.118474000000,   1.62300,
,,,0.118475000000,   1.62300,
,,,0.118476000000,   1.62300,
,,,0.118477000000,   1.62300,
,,,0.118478000000,   1.62300,
,,,0.118479000000,   1.62300,
,,,0.118480000000,   1.62300,
,,,0.118481000000,   1.62300,
,,,0.118482000000,   1.62300,
,,,0.118483000000,   1.62300,
,,,0.118484000000,   1.62300,
,,,0.118485000000,   1.62300,
,,,0.118486000000,   1.62300,
,,,0.118487000000,   1.62300,
,,,0.118488000000,   1.62300,
,,,0.118489000000,   1.62300,
,,,0.118490000000,   1.62300,
,,,0.118491000000,   1.62300,
,,,0.118492000000,   1.62300,
,,,0.118493000000,   1.62300,
,,,0.118494000000,   1.62280,
,,,0.118495000000,   1.62280,
,,,0.118496000000,   1.62280,
,,,0.118497000000,   1.62280,
,,,0.118498000000,   1.62300,
,,,0.118499000000,   1.62280,
,,,0.118500000000,   1.62280,
,,,0.118501000000,   1.62280,
,,,0.118502000000,   1.62280,
,,,0.118503000000,   1.62280,
,,,0.118504000000,   1.62280,
,,,0.118505000000,   1.62280,
,,,0.118506000000,   1.62280,
,,,0.118507000000,   1.62280,
,,,0.118508000000,   1.62280,
,,,0.118509000000,   1.62300,
,,,0.118510000000,   1.62280,
,,,0.118511000000,   1.62280,
,,,0.118512000000,   1.62300,
,,,0.118513000000,   1.62280,
,,,0.118514000000,   1.62280,
,,,0.118515000000,   1.62280,
,,,0.118516000000,   1.62280,
,,,0.118517000000,   1.62280,
,,,0.118518000000,   1.62300,
,,,0.118519000000,   1.62280,
,,,0.118520000000,   1.62280,
,,,0.118521000000,   1.62280,
,,,0.118522000000,   1.62280,
,,,0.118523000000,   1.62280,
,,,0.118524000000,   1.62280,
,,,0.118525000000,   1.62280,
,,,0.118526000000,   1.62280,
,,,0.118527000000,   1.62280,
,,,0.118528000000,   1.62280,
,,,0.118529000000,   1.62280,
,,,0.118530000000,   1.62280,
,,,0.118531000000,   1.62280,
,,,0.118532000000,   1.62280,
,,,0.118533000000,   1.62280,
,,,0.118534000000,   1.62280,
,,,0.118535000000,   1.62280,
,,,0.118536000000,   1.62280,
,,,0.118537000000,   1.62280,
,,,0.118538000000,   1.62280,
,,,0.118539000000,   1.62280,
,,,0.118540000000,   1.62280,
,,,0.118541000000,   1.62280,
,,,0.118542000000,   1.62280,
,,,0.118543000000,   1.62280,
,,,0.118544000000,   1.62280,
,,,0.118545000000,   1.62280,
,,,0.118546000000,   1.62280,
,,,0.118547000000,   1.62280,
,,,0.118548000000,   1.62280,
,,,0.118549000000,   1.62280,
,,,0.118550000000,   1.62280,
,,,0.118551000000,   1.62280,
,,,0.118552000000,   1.62280,
,,,0.118553000000,   1.62280,
,,,0.118554000000,   1.62280,
,,,0.118555000000,   1.62280,
,,,0.118556000000,   1.62280,
,,,0.118557000000,   1.62280,
,,,0.118558000000,   1.62280,
,,,0.118559000000,   1.62280,
,,,0.118560000000,   1.62280,
,,,0.118561000000,   1.62280,
,,,0.118562000000,   1.62280,
,,,0.118563000000,   1.62280,
,,,0.118564000000,   1.62280,
,,,0.118565000000,   1.62280,
,,,0.118566000000,   1.62280,
,,,0.118567000000,   1.62280,
,,,0.118568000000,   1.62280,
,,,0.118569000000,   1.62280,
,,,0.118570000000,   1.62280,
,,,0.118571000000,   1.62280,
,,,0.118572000000,   1.62280,
,,,0.118573000000,   1.62280,
,,,0.118574000000,   1.62280,
,,,0.118575000000,   1.62280,
,,,0.118576000000,   1.62280,
,,,0.118577000000,   1.62280,
,,,0.118578000000,   1.62280,
,,,0.118579000000,   1.62280,
,,,0.118580000000,   1.62280,
,,,0.118581000000,   1.62280,
,,,0.118582000000,   1.62280,
,,,0.118583000000,   1.62280,
,,,0.118584000000,   1.62280,
,,,0.118585000000,   1.62280,
,,,0.118586000000,   1.62280,
,,,0.118587000000,   1.62280,
,,,0.118588000000,   1.62280,
,,,0.118589000000,   1.62280,
,,,0.118590000000,   1.62280,
,,,0.118591000000,   1.62280,
,,,0.118592000000,   1.62280,
,,,0.118593000000,   1.62280,
,,,0.118594000000,   1.62280,
,,,0.118595000000,   1.62260,
,,,0.118596000000,   1.62260,
,,,0.118597000000,   1.62280,
,,,0.118598000000,   1.62260,
,,,0.118599000000,   1.62280,
,,,0.118600000000,   1.62280,
,,,0.118601000000,   1.62260,
,,,0.118602000000,   1.62280,
,,,0.118603000000,   1.62280,
,,,0.118604000000,   1.62280,
,,,0.118605000000,   1.62280,
,,,0.118606000000,   1.62260,
,,,0.118607000000,   1.62260,
,,,0.118608000000,   1.62260,
,,,0.118609000000,   1.62260,
,,,0.118610000000,   1.62260,
,,,0.118611000000,   1.62280,
,,,0.118612000000,   1.62260,
,,,0.118613000000,   1.62260,
,,,0.118614000000,   1.62280,
,,,0.118615000000,   1.62280,
,,,0.118616000000,   1.62280,
,,,0.118617000000,   1.62260,
,,,0.118618000000,   1.62260,
,,,0.118619000000,   1.62280,
,,,0.118620000000,   1.62260,
,,,0.118621000000,   1.62260,
,,,0.118622000000,   1.62260,
,,,0.118623000000,   1.62280,
,,,0.118624000000,   1.62280,
,,,0.118625000000,   1.62280,
,,,0.118626000000,   1.62260,
,,,0.118627000000,   1.62260,
,,,0.118628000000,   1.62260,
,,,0.118629000000,   1.62260,
,,,0.118630000000,   1.62260,
,,,0.118631000000,   1.62260,
,,,0.118632000000,   1.62260,
,,,0.118633000000,   1.62260,
,,,0.118634000000,   1.62260,
,,,0.118635000000,   1.62260,
,,,0.118636000000,   1.62260,
,,,0.118637000000,   1.62260,
,,,0.118638000000,   1.62260,
,,,0.118639000000,   1.62260,
,,,0.118640000000,   1.62260,
,,,0.118641000000,   1.62260,
,,,0.118642000000,   1.62260,
,,,0.118643000000,   1.62260,
,,,0.118644000000,   1.62260,
,,,0.118645000000,   1.62260,
,,,0.118646000000,   1.62260,
,,,0.118647000000,   1.62260,
,,,0.118648000000,   1.62260,
,,,0.118649000000,   1.62260,
,,,0.118650000000,   1.62260,
,,,0.118651000000,   1.62260,
,,,0.118652000000,   1.62240,
,,,0.118653000000,   1.62240,
,,,0.118654000000,   1.62260,
,,,0.118655000000,   1.62260,
,,,0.118656000000,   1.62260,
,,,0.118657000000,   1.62260,
,,,0.118658000000,   1.62260,
,,,0.118659000000,   1.62260,
,,,0.118660000000,   1.62260,
,,,0.118661000000,   1.62260,
,,,0.118662000000,   1.62260,
,,,0.118663000000,   1.62240,
,,,0.118664000000,   1.62240,
,,,0.118665000000,   1.62260,
,,,0.118666000000,   1.62260,
,,,0.118667000000,   1.62260,
,,,0.118668000000,   1.62260,
,,,0.118669000000,   1.62260,
,,,0.118670000000,   1.62260,
,,,0.118671000000,   1.62260,
,,,0.118672000000,   1.62240,
,,,0.118673000000,   1.62260,
,,,0.118674000000,   1.62260,
,,,0.118675000000,   1.62260,
,,,0.118676000000,   1.62260,
,,,0.118677000000,   1.62260,
,,,0.118678000000,   1.62260,
,,,0.118679000000,   1.62260,
,,,0.118680000000,   1.62240,
,,,0.118681000000,   1.62240,
,,,0.118682000000,   1.62260,
,,,0.118683000000,   1.62260,
,,,0.118684000000,   1.62260,
,,,0.118685000000,   1.62260,
,,,0.118686000000,   1.62260,
,,,0.118687000000,   1.62260,
,,,0.118688000000,   1.62260,
,,,0.118689000000,   1.62260,
,,,0.118690000000,   1.62240,
,,,0.118691000000,   1.62260,
,,,0.118692000000,   1.62260,
,,,0.118693000000,   1.62260,
,,,0.118694000000,   1.62260,
,,,0.118695000000,   1.62240,
,,,0.118696000000,   1.62240,
,,,0.118697000000,   1.62260,
,,,0.118698000000,   1.62260,
,,,0.118699000000,   1.62260,
,,,0.118700000000,   1.62260,
,,,0.118701000000,   1.62260,
,,,0.118702000000,   1.62240,
,,,0.118703000000,   1.62240,
,,,0.118704000000,   1.62240,
,,,0.118705000000,   1.62240,
,,,0.118706000000,   1.62240,
,,,0.118707000000,   1.62260,
,,,0.118708000000,   1.62260,
,,,0.118709000000,   1.62260,
,,,0.118710000000,   1.62260,
,,,0.118711000000,   1.62260,
,,,0.118712000000,   1.62260,
,,,0.118713000000,   1.62260,
,,,0.118714000000,   1.62260,
,,,0.118715000000,   1.62240,
,,,0.118716000000,   1.62240,
,,,0.118717000000,   1.62240,
,,,0.118718000000,   1.62260,
,,,0.118719000000,   1.62240,
,,,0.118720000000,   1.62260,
,,,0.118721000000,   1.62260,
,,,0.118722000000,   1.62260,
,,,0.118723000000,   1.62260,
,,,0.118724000000,   1.62260,
,,,0.118725000000,   1.62240,
,,,0.118726000000,   1.62260,
,,,0.118727000000,   1.62240,
,,,0.118728000000,   1.62240,
,,,0.118729000000,   1.62260,
,,,0.118730000000,   1.62260,
,,,0.118731000000,   1.62240,
,,,0.118732000000,   1.62260,
,,,0.118733000000,   1.62240,
,,,0.118734000000,   1.62260,
,,,0.118735000000,   1.62260,
,,,0.118736000000,   1.62260,
,,,0.118737000000,   1.62240,
,,,0.118738000000,   1.62260,
,,,0.118739000000,   1.62240,
,,,0.118740000000,   1.62260,
,,,0.118741000000,   1.62240,
,,,0.118742000000,   1.62260,
,,,0.118743000000,   1.62240,
,,,0.118744000000,   1.62260,
,,,0.118745000000,   1.62260,
,,,0.118746000000,   1.62240,
,,,0.118747000000,   1.62240,
,,,0.118748000000,   1.62260,
,,,0.118749000000,   1.62260,
,,,0.118750000000,   1.62260,
,,,0.118751000000,   1.62240,
,,,0.118752000000,   1.62260,
,,,0.118753000000,   1.62240,
,,,0.118754000000,   1.62240,
,,,0.118755000000,   1.62240,
,,,0.118756000000,   1.62240,
,,,0.118757000000,   1.62240,
,,,0.118758000000,   1.62240,
,,,0.118759000000,   1.62240,
,,,0.118760000000,   1.62240,
,,,0.118761000000,   1.62240,
,,,0.118762000000,   1.62240,
,,,0.118763000000,   1.62240,
,,,0.118764000000,   1.62240,
,,,0.118765000000,   1.62240,
,,,0.118766000000,   1.62240,
,,,0.118767000000,   1.62240,
,,,0.118768000000,   1.62240,
,,,0.118769000000,   1.62240,
,,,0.118770000000,   1.62240,
,,,0.118771000000,   1.62240,
,,,0.118772000000,   1.62240,
,,,0.118773000000,   1.62240,
,,,0.118774000000,   1.62240,
,,,0.118775000000,   1.62240,
,,,0.118776000000,   1.62240,
,,,0.118777000000,   1.62240,
,,,0.118778000000,   1.62240,
,,,0.118779000000,   1.62240,
,,,0.118780000000,   1.62240,
,,,0.118781000000,   1.62240,
,,,0.118782000000,   1.62240,
,,,0.118783000000,   1.62240,
,,,0.118784000000,   1.62240,
,,,0.118785000000,   1.62240,
,,,0.118786000000,   1.62240,
,,,0.118787000000,   1.62240,
,,,0.118788000000,   1.62240,
,,,0.118789000000,   1.62240,
,,,0.118790000000,   1.62240,
,,,0.118791000000,   1.62240,
,,,0.118792000000,   1.62240,
,,,0.118793000000,   1.62240,
,,,0.118794000000,   1.62240,
,,,0.118795000000,   1.62240,
,,,0.118796000000,   1.62240,
,,,0.118797000000,   1.62220,
,,,0.118798000000,   1.62220,
,,,0.118799000000,   1.62240,
,,,0.118800000000,   1.62220,
,,,0.118801000000,   1.62240,
,,,0.118802000000,   1.62220,
,,,0.118803000000,   1.62220,
,,,0.118804000000,   1.62220,
,,,0.118805000000,   1.62220,
,,,0.118806000000,   1.62220,
,,,0.118807000000,   1.62220,
,,,0.118808000000,   1.62220,
,,,0.118809000000,   1.62220,
,,,0.118810000000,   1.62220,
,,,0.118811000000,   1.62220,
,,,0.118812000000,   1.62220,
,,,0.118813000000,   1.62220,
,,,0.118814000000,   1.62220,
,,,0.118815000000,   1.62220,
,,,0.118816000000,   1.62220,
,,,0.118817000000,   1.62220,
,,,0.118818000000,   1.62220,
,,,0.118819000000,   1.62220,
,,,0.118820000000,   1.62220,
,,,0.118821000000,   1.62220,
,,,0.118822000000,   1.62220,
,,,0.118823000000,   1.62220,
,,,0.118824000000,   1.62220,
,,,0.118825000000,   1.62220,
,,,0.118826000000,   1.62220,
,,,0.118827000000,   1.62220,
,,,0.118828000000,   1.62220,
,,,0.118829000000,   1.62220,
,,,0.118830000000,   1.62220,
,,,0.118831000000,   1.62220,
,,,0.118832000000,   1.62220,
,,,0.118833000000,   1.62220,
,,,0.118834000000,   1.62220,
,,,0.118835000000,   1.62220,
,,,0.118836000000,   1.62220,
,,,0.118837000000,   1.62220,
,,,0.118838000000,   1.62220,
,,,0.118839000000,   1.62220,
,,,0.118840000000,   1.62220,
,,,0.118841000000,   1.62220,
,,,0.118842000000,   1.62220,
,,,0.118843000000,   1.62220,
,,,0.118844000000,   1.62220,
,,,0.118845000000,   1.62220,
,,,0.118846000000,   1.62220,
,,,0.118847000000,   1.62220,
,,,0.118848000000,   1.62200,
,,,0.118849000000,   1.62220,
,,,0.118850000000,   1.62200,
,,,0.118851000000,   1.62200,
,,,0.118852000000,   1.62220,
,,,0.118853000000,   1.62200,
,,,0.118854000000,   1.62200,
,,,0.118855000000,   1.62220,
,,,0.118856000000,   1.62200,
,,,0.118857000000,   1.62220,
,,,0.118858000000,   1.62220,
,,,0.118859000000,   1.62220,
,,,0.118860000000,   1.62220,
,,,0.118861000000,   1.62200,
,,,0.118862000000,   1.62200,
,,,0.118863000000,   1.62200,
,,,0.118864000000,   1.62200,
,,,0.118865000000,   1.62200,
,,,0.118866000000,   1.62200,
,,,0.118867000000,   1.62200,
,,,0.118868000000,   1.62200,
,,,0.118869000000,   1.62200,
,,,0.118870000000,   1.62200,
,,,0.118871000000,   1.62200,
,,,0.118872000000,   1.62200,
,,,0.118873000000,   1.62200,
,,,0.118874000000,   1.62180,
,,,0.118875000000,   1.62180,
,,,0.118876000000,   1.62180,
,,,0.118877000000,   1.62180,
,,,0.118878000000,   1.62180,
,,,0.118879000000,   1.62180,
,,,0.118880000000,   1.62180,
,,,0.118881000000,   1.62180,
,,,0.118882000000,   1.62180,
,,,0.118883000000,   1.62180,
,,,0.118884000000,   1.62180,
,,,0.118885000000,   1.62180,
,,,0.118886000000,   1.62180,
,,,0.118887000000,   1.62180,
,,,0.118888000000,   1.62180,
,,,0.118889000000,   1.62180,
,,,0.118890000000,   1.62180,
,,,0.118891000000,   1.62180,
,,,0.118892000000,   1.62180,
,,,0.118893000000,   1.62180,
,,,0.118894000000,   1.62180,
,,,0.118895000000,   1.62180,
,,,0.118896000000,   1.62180,
,,,0.118897000000,   1.62180,
,,,0.118898000000,   1.62180,
,,,0.118899000000,   1.62180,
,,,0.118900000000,   1.62180,
,,,0.118901000000,   1.62180,
,,,0.118902000000,   1.62160,
,,,0.118903000000,   1.62160,
,,,0.118904000000,   1.62160,
,,,0.118905000000,   1.62160,
,,,0.118906000000,   1.62160,
,,,0.118907000000,   1.62160,
,,,0.118908000000,   1.62160,
,,,0.118909000000,   1.62160,
,,,0.118910000000,   1.62160,
,,,0.118911000000,   1.62160,
,,,0.118912000000,   1.62160,
,,,0.118913000000,   1.62160,
,,,0.118914000000,   1.62160,
,,,0.118915000000,   1.62160,
,,,0.118916000000,   1.62160,
,,,0.118917000000,   1.62160,
,,,0.118918000000,   1.62140,
,,,0.118919000000,   1.62160,
,,,0.118920000000,   1.62140,
,,,0.118921000000,   1.62140,
,,,0.118922000000,   1.62140,
,,,0.118923000000,   1.62140,
,,,0.118924000000,   1.62140,
,,,0.118925000000,   1.62140,
,,,0.118926000000,   1.62140,
,,,0.118927000000,   1.62140,
,,,0.118928000000,   1.62120,
,,,0.118929000000,   1.62140,
,,,0.118930000000,   1.62120,
,,,0.118931000000,   1.62120,
,,,0.118932000000,   1.62120,
,,,0.118933000000,   1.62120,
,,,0.118934000000,   1.62120,
,,,0.118935000000,   1.62120,
,,,0.118936000000,   1.62120,
,,,0.118937000000,   1.62140,
,,,0.118938000000,   1.62120,
,,,0.118939000000,   1.62120,
,,,0.118940000000,   1.62120,
,,,0.118941000000,   1.62120,
,,,0.118942000000,   1.62120,
,,,0.118943000000,   1.62120,
,,,0.118944000000,   1.62100,
,,,0.118945000000,   1.62120,
,,,0.118946000000,   1.62120,
,,,0.118947000000,   1.62120,
,,,0.118948000000,   1.62120,
,,,0.118949000000,   1.62100,
,,,0.118950000000,   1.62120,
,,,0.118951000000,   1.62100,
,,,0.118952000000,   1.62100,
,,,0.118953000000,   1.62100,
,,,0.118954000000,   1.62100,
,,,0.118955000000,   1.62100,
,,,0.118956000000,   1.62100,
,,,0.118957000000,   1.62100,
,,,0.118958000000,   1.62100,
,,,0.118959000000,   1.62100,
,,,0.118960000000,   1.62100,
,,,0.118961000000,   1.62100,
,,,0.118962000000,   1.62100,
,,,0.118963000000,   1.62100,
,,,0.118964000000,   1.62080,
,,,0.118965000000,   1.62100,
,,,0.118966000000,   1.62080,
,,,0.118967000000,   1.62080,
,,,0.118968000000,   1.62080,
,,,0.118969000000,   1.62080,
,,,0.118970000000,   1.62080,
,,,0.118971000000,   1.62080,
,,,0.118972000000,   1.62080,
,,,0.118973000000,   1.62060,
,,,0.118974000000,   1.62060,
,,,0.118975000000,   1.62060,
,,,0.118976000000,   1.62060,
,,,0.118977000000,   1.62060,
,,,0.118978000000,   1.62060,
,,,0.118979000000,   1.62060,
,,,0.118980000000,   1.62060,
,,,0.118981000000,   1.62060,
,,,0.118982000000,   1.62060,
,,,0.118983000000,   1.62060,
,,,0.118984000000,   1.62060,
,,,0.118985000000,   1.62060,
,,,0.118986000000,   1.62040,
,,,0.118987000000,   1.62040,
,,,0.118988000000,   1.62040,
,,,0.118989000000,   1.62040,
,,,0.118990000000,   1.62040,
,,,0.118991000000,   1.62040,
,,,0.118992000000,   1.62040,
,,,0.118993000000,   1.62040,
,,,0.118994000000,   1.62020,
,,,0.118995000000,   1.62020,
,,,0.118996000000,   1.62020,
,,,0.118997000000,   1.62020,
,,,0.118998000000,   1.62020,
,,,0.118999000000,   1.62020,
,,,0.119000000000,   1.62020,
,,,0.119001000000,   1.62000,
,,,0.119002000000,   1.62020,
,,,0.119003000000,   1.62000,
