Data/031221/ALL0005/F0005CH1.CSV

Record Length,2.500000e+03,,   0.095080000000,   0.38580,
Sample Interval,2.000000e-06,,   0.095082000000,   0.38580,
Trigger Point,-4.754000000000e+04,,   0.095084000000,   0.38580,
,,,   0.095086000000,   0.38568,
,,,   0.095088000000,   0.38580,
,,,   0.095090000000,   0.38580,
Source,CH1,,   0.095092000000,   0.38568,
Vertical Units,V,,   0.095094000000,   0.38568,
Vertical Scale,3.000000e-03,,   0.095096000000,   0.38568,
Vertical Offset,-3.792000e-01,,   0.095098000000,   0.38568,
Horizontal Units,s,,   0.095100000000,   0.38568,
Horizontal Scale,5.000000e-04,,   0.095102000000,   0.38568,
Pt Fmt,Y,,   0.095104000000,   0.38568,
Yzero,0.000000e+00,,   0.095106000000,   0.38568,
Probe Atten,1.000000e+00,,   0.095108000000,   0.38568,
Model Number,TDS2002C,,   0.095110000000,   0.38568,
Serial Number,C013408,,   0.095112000000,   0.38568,
Firmware Version,FV:v24.15,,   0.095114000000,   0.38556,
,,,0.095116000000,   0.38556,
,,,0.095118000000,   0.38568,
,,,0.095120000000,   0.38568,
,,,0.095122000000,   0.38568,
,,,0.095124000000,   0.38568,
,,,0.095126000000,   0.38568,
,,,0.095128000000,   0.38568,
,,,0.095130000000,   0.38568,
,,,0.095132000000,   0.38568,
,,,0.095134000000,   0.38568,
,,,0.095136000000,   0.38568,
,,,0.095138000000,   0.38556,
,,,0.095140000000,   0.38556,
,,,0.095142000000,   0.38556,
,,,0.095144000000,   0.38568,
,,,0.095146000000,   0.38556,
,,,0.095148000000,   0.38556,
,,,0.095150000000,   0.38556,
,,,0.095152000000,   0.38556,
,,,0.095154000000,   0.38544,
,,,0.095156000000,   0.38544,
,,,0.095158000000,   0.38556,
,,,0.095160000000,   0.38556,
,,,0.095162000000,   0.38556,
,,,0.095164000000,   0.38556,
,,,0.095166000000,   0.38556,
,,,0.095168000000,   0.38556,
,,,0.095170000000,   0.38556,
,,,0.095172000000,   0.38556,
,,,0.095174000000,   0.38556,
,,,0.095176000000,   0.38556,
,,,0.095178000000,   0.38556,
,,,0.095180000000,   0.38556,
,,,0.095182000000,   0.38556,
,,,0.095184000000,   0.38556,
,,,0.095186000000,   0.38556,
,,,0.095188000000,   0.38556,
,,,0.095190000000,   0.38556,
,,,0.095192000000,   0.38556,
,,,0.095194000000,   0.38556,
,,,0.095196000000,   0.38556,
,,,0.095198000000,   0.38556,
,,,0.095200000000,   0.38556,
,,,0.095202000000,   0.38556,
,,,0.095204000000,   0.38568,
,,,0.095206000000,   0.38556,
,,,0.095208000000,   0.38568,
,,,0.095210000000,   0.38568,
,,,0.095212000000,   0.38568,
,,,0.095214000000,   0.38568,
,,,0.095216000000,   0.38556,
,,,0.095218000000,   0.38556,
,,,0.095220000000,   0.38556,
,,,0.095222000000,   0.38556,
,,,0.095224000000,   0.38556,
,,,0.095226000000,   0.38556,
,,,0.095228000000,   0.38568,
,,,0.095230000000,   0.38568,
,,,0.095232000000,   0.38568,
,,,0.095234000000,   0.38568,
,,,0.095236000000,   0.38568,
,,,0.095238000000,   0.38568,
,,,0.095240000000,   0.38568,
,,,0.095242000000,   0.38568,
,,,0.095244000000,   0.38568,
,,,0.095246000000,   0.38568,
,,,0.095248000000,   0.38568,
,,,0.095250000000,   0.38568,
,,,0.095252000000,   0.38568,
,,,0.095254000000,   0.38568,
,,,0.095256000000,   0.38568,
,,,0.095258000000,   0.38580,
,,,0.095260000000,   0.38568,
,,,0.095262000000,   0.38580,
,,,0.095264000000,   0.38580,
,,,0.095266000000,   0.38580,
,,,0.095268000000,   0.38580,
,,,0.095270000000,   0.38580,
,,,0.095272000000,   0.38580,
,,,0.095274000000,   0.38580,
,,,0.095276000000,   0.38580,
,,,0.095278000000,   0.38592,
,,,0.095280000000,   0.38580,
,,,0.095282000000,   0.38592,
,,,0.095284000000,   0.38592,
,,,0.095286000000,   0.38592,
,,,0.095288000000,   0.38592,
,,,0.095290000000,   0.38592,
,,,0.095292000000,   0.38592,
,,,0.095294000000,   0.38592,
,,,0.095296000000,   0.38592,
,,,0.095298000000,   0.38592,
,,,0.095300000000,   0.38592,
,,,0.095302000000,   0.38592,
,,,0.095304000000,   0.38604,
,,,0.095306000000,   0.38592,
,,,0.095308000000,   0.38592,
,,,0.095310000000,   0.38604,
,,,0.095312000000,   0.38604,
,,,0.095314000000,   0.38604,
,,,0.095316000000,   0.38604,
,,,0.095318000000,   0.38604,
,,,0.095320000000,   0.38604,
,,,0.095322000000,   0.38604,
,,,0.095324000000,   0.38604,
,,,0.095326000000,   0.38604,
,,,0.095328000000,   0.38604,
,,,0.095330000000,   0.38604,
,,,0.095332000000,   0.38604,
,,,0.095334000000,   0.38604,
,,,0.095336000000,   0.38604,
,,,0.095338000000,   0.38604,
,,,0.095340000000,   0.38604,
,,,0.095342000000,   0.38604,
,,,0.095344000000,   0.38604,
,,,0.095346000000,   0.38604,
,,,0.095348000000,   0.38604,
,,,0.095350000000,   0.38604,
,,,0.095352000000,   0.38604,
,,,0.095354000000,   0.38604,
,,,0.095356000000,   0.38604,
,,,0.095358000000,   0.38616,
,,,0.095360000000,   0.38616,
,,,0.095362000000,   0.38616,
,,,0.095364000000,   0.38616,
,,,0.095366000000,   0.38616,
,,,0.095368000000,   0.38604,
,,,0.095370000000,   0.38616,
,,,0.095372000000,   0.38604,
,,,0.095374000000,   0.38616,
,,,0.095376000000,   0.38604,
,,,0.095378000000,   0.38604,
,,,0.095380000000,   0.38604,
,,,0.095382000000,   0.38604,
,,,0.095384000000,   0.38604,
,,,0.095386000000,   0.38604,
,,,0.095388000000,   0.38604,
,,,0.095390000000,   0.38616,
,,,0.095392000000,   0.38604,
,,,0.095394000000,   0.38616,
,,,0.095396000000,   0.38616,
,,,0.095398000000,   0.38604,
,,,0.095400000000,   0.38604,
,,,0.095402000000,   0.38604,
,,,0.095404000000,   0.38604,
,,,0.095406000000,   0.38604,
,,,0.095408000000,   0.38604,
,,,0.095410000000,   0.38604,
,,,0.095412000000,   0.38604,
,,,0.095414000000,   0.38604,
,,,0.095416000000,   0.38604,
,,,0.095418000000,   0.38604,
,,,0.095420000000,   0.38604,
,,,0.095422000000,   0.38604,
,,,0.095424000000,   0.38604,
,,,0.095426000000,   0.38604,
,,,0.095428000000,   0.38604,
,,,0.095430000000,   0.38604,
,,,0.095432000000,   0.38604,
,,,0.095434000000,   0.38604,
,,,0.095436000000,   0.38604,
,,,0.095438000000,   0.38604,
,,,0.095440000000,   0.38604,
,,,0.095442000000,   0.38604,
,,,0.095444000000,   0.38604,
,,,0.095446000000,   0.38592,
,,,0.095448000000,   0.38592,
,,,0.095450000000,   0.38592,
,,,0.095452000000,   0.38592,
,,,0.095454000000,   0.38592,
,,,0.095456000000,   0.38592,
,,,0.095458000000,   0.38592,
,,,0.095460000000,   0.38592,
,,,0.095462000000,   0.38592,
,,,0.095464000000,   0.38592,
,,,0.095466000000,   0.38592,
,,,0.095468000000,   0.38592,
,,,0.095470000000,   0.38592,
,,,0.095472000000,   0.38592,
,,,0.095474000000,   0.38592,
,,,0.095476000000,   0.38592,
,,,0.095478000000,   0.38592,
,,,0.095480000000,   0.38592,
,,,0.095482000000,   0.38592,
,,,0.095484000000,   0.38592,
,,,0.095486000000,   0.38592,
,,,0.095488000000,   0.38592,
,,,0.095490000000,   0.38592,
,,,0.095492000000,   0.38592,
,,,0.095494000000,   0.38592,
,,,0.095496000000,   0.38592,
,,,0.095498000000,   0.38580,
,,,0.095500000000,   0.38592,
,,,0.095502000000,   0.38580,
,,,0.095504000000,   0.38592,
,,,0.095506000000,   0.38580,
,,,0.095508000000,   0.38580,
,,,0.095510000000,   0.38580,
,,,0.095512000000,   0.38580,
,,,0.095514000000,   0.38580,
,,,0.095516000000,   0.38592,
,,,0.095518000000,   0.38592,
,,,0.095520000000,   0.38580,
,,,0.095522000000,   0.38580,
,,,0.095524000000,   0.38580,
,,,0.095526000000,   0.38580,
,,,0.095528000000,   0.38580,
,,,0.095530000000,   0.38580,
,,,0.095532000000,   0.38580,
,,,0.095534000000,   0.38580,
,,,0.095536000000,   0.38580,
,,,0.095538000000,   0.38580,
,,,0.095540000000,   0.38580,
,,,0.095542000000,   0.38568,
,,,0.095544000000,   0.38580,
,,,0.095546000000,   0.38568,
,,,0.095548000000,   0.38580,
,,,0.095550000000,   0.38580,
,,,0.095552000000,   0.38580,
,,,0.095554000000,   0.38580,
,,,0.095556000000,   0.38580,
,,,0.095558000000,   0.38580,
,,,0.095560000000,   0.38580,
,,,0.095562000000,   0.38580,
,,,0.095564000000,   0.38580,
,,,0.095566000000,   0.38580,
,,,0.095568000000,   0.38580,
,,,0.095570000000,   0.38580,
,,,0.095572000000,   0.38580,
,,,0.095574000000,   0.38580,
,,,0.095576000000,   0.38580,
,,,0.095578000000,   0.38580,
,,,0.095580000000,   0.38580,
,,,0.095582000000,   0.38580,
,,,0.095584000000,   0.38580,
,,,0.095586000000,   0.38580,
,,,0.095588000000,   0.38592,
,,,0.095590000000,   0.38592,
,,,0.095592000000,   0.38592,
,,,0.095594000000,   0.38580,
,,,0.095596000000,   0.38580,
,,,0.095598000000,   0.38592,
,,,0.095600000000,   0.38592,
,,,0.095602000000,   0.38592,
,,,0.095604000000,   0.38592,
,,,0.095606000000,   0.38592,
,,,0.095608000000,   0.38592,
,,,0.095610000000,   0.38592,
,,,0.095612000000,   0.38604,
,,,0.095614000000,   0.38604,
,,,0.095616000000,   0.38604,
,,,0.095618000000,   0.38604,
,,,0.095620000000,   0.38604,
,,,0.095622000000,   0.38604,
,,,0.095624000000,   0.38616,
,,,0.095626000000,   0.38604,
,,,0.095628000000,   0.38604,
,,,0.095630000000,   0.38616,
,,,0.095632000000,   0.38616,
,,,0.095634000000,   0.38616,
,,,0.095636000000,   0.38616,
,,,0.095638000000,   0.38604,
,,,0.095640000000,   0.38616,
,,,0.095642000000,   0.38616,
,,,0.095644000000,   0.38616,
,,,0.095646000000,   0.38616,
,,,0.095648000000,   0.38616,
,,,0.095650000000,   0.38628,
,,,0.095652000000,   0.38628,
,,,0.095654000000,   0.38616,
,,,0.095656000000,   0.38616,
,,,0.095658000000,   0.38628,
,,,0.095660000000,   0.38628,
,,,0.095662000000,   0.38628,
,,,0.095664000000,   0.38628,
,,,0.095666000000,   0.38628,
,,,0.095668000000,   0.38628,
,,,0.095670000000,   0.38628,
,,,0.095672000000,   0.38640,
,,,0.095674000000,   0.38640,
,,,0.095676000000,   0.38640,
,,,0.095678000000,   0.38640,
,,,0.095680000000,   0.38640,
,,,0.095682000000,   0.38640,
,,,0.095684000000,   0.38640,
,,,0.095686000000,   0.38640,
,,,0.095688000000,   0.38640,
,,,0.095690000000,   0.38628,
,,,0.095692000000,   0.38628,
,,,0.095694000000,   0.38628,
,,,0.095696000000,   0.38628,
,,,0.095698000000,   0.38628,
,,,0.095700000000,   0.38628,
,,,0.095702000000,   0.38628,
,,,0.095704000000,   0.38640,
,,,0.095706000000,   0.38640,
,,,0.095708000000,   0.38628,
,,,0.095710000000,   0.38628,
,,,0.095712000000,   0.38628,
,,,0.095714000000,   0.38628,
,,,0.095716000000,   0.38628,
,,,0.095718000000,   0.38628,
,,,0.095720000000,   0.38628,
,,,0.095722000000,   0.38640,
,,,0.095724000000,   0.38628,
,,,0.095726000000,   0.38628,
,,,0.095728000000,   0.38640,
,,,0.095730000000,   0.38628,
,,,0.095732000000,   0.38628,
,,,0.095734000000,   0.38628,
,,,0.095736000000,   0.38628,
,,,0.095738000000,   0.38628,
,,,0.095740000000,   0.38628,
,,,0.095742000000,   0.38628,
,,,0.095744000000,   0.38628,
,,,0.095746000000,   0.38628,
,,,0.095748000000,   0.38628,
,,,0.095750000000,   0.38628,
,,,0.095752000000,   0.38628,
,,,0.095754000000,   0.38628,
,,,0.095756000000,   0.38628,
,,,0.095758000000,   0.38640,
,,,0.095760000000,   0.38640,
,,,0.095762000000,   0.38628,
,,,0.095764000000,   0.38628,
,,,0.095766000000,   0.38628,
,,,0.095768000000,   0.38628,
,,,0.095770000000,   0.38628,
,,,0.095772000000,   0.38628,
,,,0.095774000000,   0.38628,
,,,0.095776000000,   0.38628,
,,,0.095778000000,   0.38628,
,,,0.095780000000,   0.38628,
,,,0.095782000000,   0.38628,
,,,0.095784000000,   0.38628,
,,,0.095786000000,   0.38628,
,,,0.095788000000,   0.38628,
,,,0.095790000000,   0.38616,
,,,0.095792000000,   0.38616,
,,,0.095794000000,   0.38616,
,,,0.095796000000,   0.38616,
,,,0.095798000000,   0.38616,
,,,0.095800000000,   0.38616,
,,,0.095802000000,   0.38616,
,,,0.095804000000,   0.38604,
,,,0.095806000000,   0.38616,
,,,0.095808000000,   0.38604,
,,,0.095810000000,   0.38592,
,,,0.095812000000,   0.38592,
,,,0.095814000000,   0.38592,
,,,0.095816000000,   0.38592,
,,,0.095818000000,   0.38580,
,,,0.095820000000,   0.38580,
,,,0.095822000000,   0.38580,
,,,0.095824000000,   0.38580,
,,,0.095826000000,   0.38580,
,,,0.095828000000,   0.38580,
,,,0.095830000000,   0.38580,
,,,0.095832000000,   0.38568,
,,,0.095834000000,   0.38568,
,,,0.095836000000,   0.38568,
,,,0.095838000000,   0.38568,
,,,0.095840000000,   0.38568,
,,,0.095842000000,   0.38556,
,,,0.095844000000,   0.38556,
,,,0.095846000000,   0.38544,
,,,0.095848000000,   0.38544,
,,,0.095850000000,   0.38544,
,,,0.095852000000,   0.38544,
,,,0.095854000000,   0.38532,
,,,0.095856000000,   0.38532,
,,,0.095858000000,   0.38532,
,,,0.095860000000,   0.38520,
,,,0.095862000000,   0.38520,
,,,0.095864000000,   0.38520,
,,,0.095866000000,   0.38520,
,,,0.095868000000,   0.38508,
,,,0.095870000000,   0.38508,
,,,0.095872000000,   0.38508,
,,,0.095874000000,   0.38496,
,,,0.095876000000,   0.38496,
,,,0.095878000000,   0.38484,
,,,0.095880000000,   0.38496,
,,,0.095882000000,   0.38496,
,,,0.095884000000,   0.38484,
,,,0.095886000000,   0.38484,
,,,0.095888000000,   0.38484,
,,,0.095890000000,   0.38472,
,,,0.095892000000,   0.38472,
,,,0.095894000000,   0.38472,
,,,0.095896000000,   0.38472,
,,,0.095898000000,   0.38472,
,,,0.095900000000,   0.38472,
,,,0.095902000000,   0.38460,
,,,0.095904000000,   0.38460,
,,,0.095906000000,   0.38460,
,,,0.095908000000,   0.38460,
,,,0.095910000000,   0.38460,
,,,0.095912000000,   0.38460,
,,,0.095914000000,   0.38460,
,,,0.095916000000,   0.38460,
,,,0.095918000000,   0.38460,
,,,0.095920000000,   0.38448,
,,,0.095922000000,   0.38460,
,,,0.095924000000,   0.38460,
,,,0.095926000000,   0.38460,
,,,0.095928000000,   0.38460,
,,,0.095930000000,   0.38460,
,,,0.095932000000,   0.38460,
,,,0.095934000000,   0.38460,
,,,0.095936000000,   0.38448,
,,,0.095938000000,   0.38448,
,,,0.095940000000,   0.38448,
,,,0.095942000000,   0.38448,
,,,0.095944000000,   0.38460,
,,,0.095946000000,   0.38448,
,,,0.095948000000,   0.38448,
,,,0.095950000000,   0.38448,
,,,0.095952000000,   0.38448,
,,,0.095954000000,   0.38448,
,,,0.095956000000,   0.38448,
,,,0.095958000000,   0.38448,
,,,0.095960000000,   0.38448,
,,,0.095962000000,   0.38448,
,,,0.095964000000,   0.38448,
,,,0.095966000000,   0.38448,
,,,0.095968000000,   0.38448,
,,,0.095970000000,   0.38448,
,,,0.095972000000,   0.38448,
,,,0.095974000000,   0.38448,
,,,0.095976000000,   0.38448,
,,,0.095978000000,   0.38448,
,,,0.095980000000,   0.38448,
,,,0.095982000000,   0.38448,
,,,0.095984000000,   0.38448,
,,,0.095986000000,   0.38436,
,,,0.095988000000,   0.38448,
,,,0.095990000000,   0.38448,
,,,0.095992000000,   0.38448,
,,,0.095994000000,   0.38448,
,,,0.095996000000,   0.38436,
,,,0.095998000000,   0.38448,
,,,0.096000000000,   0.38436,
,,,0.096002000000,   0.38436,
,,,0.096004000000,   0.38448,
,,,0.096006000000,   0.38436,
,,,0.096008000000,   0.38436,
,,,0.096010000000,   0.38436,
,,,0.096012000000,   0.38436,
,,,0.096014000000,   0.38436,
,,,0.096016000000,   0.38436,
,,,0.096018000000,   0.38436,
,,,0.096020000000,   0.38436,
,,,0.096022000000,   0.38436,
,,,0.096024000000,   0.38436,
,,,0.096026000000,   0.38436,
,,,0.096028000000,   0.38436,
,,,0.096030000000,   0.38436,
,,,0.096032000000,   0.38436,
,,,0.096034000000,   0.38436,
,,,0.096036000000,   0.38436,
,,,0.096038000000,   0.38424,
,,,0.096040000000,   0.38424,
,,,0.096042000000,   0.38424,
,,,0.096044000000,   0.38424,
,,,0.096046000000,   0.38424,
,,,0.096048000000,   0.38424,
,,,0.096050000000,   0.38424,
,,,0.096052000000,   0.38424,
,,,0.096054000000,   0.38424,
,,,0.096056000000,   0.38424,
,,,0.096058000000,   0.38424,
,,,0.096060000000,   0.38424,
,,,0.096062000000,   0.38424,
,,,0.096064000000,   0.38424,
,,,0.096066000000,   0.38424,
,,,0.096068000000,   0.38424,
,,,0.096070000000,   0.38424,
,,,0.096072000000,   0.38424,
,,,0.096074000000,   0.38424,
,,,0.096076000000,   0.38424,
,,,0.096078000000,   0.38424,
,,,0.096080000000,   0.38424,
,,,0.096082000000,   0.38424,
,,,0.096084000000,   0.38424,
,,,0.096086000000,   0.38424,
,,,0.096088000000,   0.38412,
,,,0.096090000000,   0.38424,
,,,0.096092000000,   0.38424,
,,,0.096094000000,   0.38412,
,,,0.096096000000,   0.38412,
,,,0.096098000000,   0.38412,
,,,0.096100000000,   0.38412,
,,,0.096102000000,   0.38412,
,,,0.096104000000,   0.38412,
,,,0.096106000000,   0.38400,
,,,0.096108000000,   0.38400,
,,,0.096110000000,   0.38400,
,,,0.096112000000,   0.38400,
,,,0.096114000000,   0.38400,
,,,0.096116000000,   0.38400,
,,,0.096118000000,   0.38400,
,,,0.096120000000,   0.38400,
,,,0.096122000000,   0.38400,
,,,0.096124000000,   0.38400,
,,,0.096126000000,   0.38388,
,,,0.096128000000,   0.38400,
,,,0.096130000000,   0.38388,
,,,0.096132000000,   0.38388,
,,,0.096134000000,   0.38388,
,,,0.096136000000,   0.38388,
,,,0.096138000000,   0.38400,
,,,0.096140000000,   0.38388,
,,,0.096142000000,   0.38400,
,,,0.096144000000,   0.38388,
,,,0.096146000000,   0.38400,
,,,0.096148000000,   0.38388,
,,,0.096150000000,   0.38388,
,,,0.096152000000,   0.38388,
,,,0.096154000000,   0.38388,
,,,0.096156000000,   0.38388,
,,,0.096158000000,   0.38400,
,,,0.096160000000,   0.38400,
,,,0.096162000000,   0.38400,
,,,0.096164000000,   0.38400,
,,,0.096166000000,   0.38400,
,,,0.096168000000,   0.38400,
,,,0.096170000000,   0.38400,
,,,0.096172000000,   0.38400,
,,,0.096174000000,   0.38400,
,,,0.096176000000,   0.38400,
,,,0.096178000000,   0.38412,
,,,0.096180000000,   0.38412,
,,,0.096182000000,   0.38412,
,,,0.096184000000,   0.38400,
,,,0.096186000000,   0.38412,
,,,0.096188000000,   0.38412,
,,,0.096190000000,   0.38412,
,,,0.096192000000,   0.38412,
,,,0.096194000000,   0.38412,
,,,0.096196000000,   0.38424,
,,,0.096198000000,   0.38424,
,,,0.096200000000,   0.38424,
,,,0.096202000000,   0.38424,
,,,0.096204000000,   0.38436,
,,,0.096206000000,   0.38436,
,,,0.096208000000,   0.38436,
,,,0.096210000000,   0.38436,
,,,0.096212000000,   0.38436,
,,,0.096214000000,   0.38436,
,,,0.096216000000,   0.38448,
,,,0.096218000000,   0.38436,
,,,0.096220000000,   0.38436,
,,,0.096222000000,   0.38436,
,,,0.096224000000,   0.38448,
,,,0.096226000000,   0.38448,
,,,0.096228000000,   0.38460,
,,,0.096230000000,   0.38448,
,,,0.096232000000,   0.38460,
,,,0.096234000000,   0.38460,
,,,0.096236000000,   0.38460,
,,,0.096238000000,   0.38460,
,,,0.096240000000,   0.38460,
,,,0.096242000000,   0.38460,
,,,0.096244000000,   0.38460,
,,,0.096246000000,   0.38460,
,,,0.096248000000,   0.38472,
,,,0.096250000000,   0.38472,
,,,0.096252000000,   0.38472,
,,,0.096254000000,   0.38472,
,,,0.096256000000,   0.38472,
,,,0.096258000000,   0.38472,
,,,0.096260000000,   0.38472,
,,,0.096262000000,   0.38472,
,,,0.096264000000,   0.38472,
,,,0.096266000000,   0.38472,
,,,0.096268000000,   0.38472,
,,,0.096270000000,   0.38484,
,,,0.096272000000,   0.38472,
,,,0.096274000000,   0.38472,
,,,0.096276000000,   0.38472,
,,,0.096278000000,   0.38472,
,,,0.096280000000,   0.38484,
,,,0.096282000000,   0.38484,
,,,0.096284000000,   0.38472,
,,,0.096286000000,   0.38472,
,,,0.096288000000,   0.38472,
,,,0.096290000000,   0.38472,
,,,0.096292000000,   0.38472,
,,,0.096294000000,   0.38484,
,,,0.096296000000,   0.38484,
,,,0.096298000000,   0.38472,
,,,0.096300000000,   0.38472,
,,,0.096302000000,   0.38484,
,,,0.096304000000,   0.38484,
,,,0.096306000000,   0.38484,
,,,0.096308000000,   0.38484,
,,,0.096310000000,   0.38484,
,,,0.096312000000,   0.38484,
,,,0.096314000000,   0.38484,
,,,0.096316000000,   0.38484,
,,,0.096318000000,   0.38484,
,,,0.096320000000,   0.38484,
,,,0.096322000000,   0.38484,
,,,0.096324000000,   0.38496,
,,,0.096326000000,   0.38496,
,,,0.096328000000,   0.38484,
,,,0.096330000000,   0.38496,
,,,0.096332000000,   0.38484,
,,,0.096334000000,   0.38484,
,,,0.096336000000,   0.38496,
,,,0.096338000000,   0.38484,
,,,0.096340000000,   0.38484,
,,,0.096342000000,   0.38484,
,,,0.096344000000,   0.38484,
,,,0.096346000000,   0.38484,
,,,0.096348000000,   0.38484,
,,,0.096350000000,   0.38484,
,,,0.096352000000,   0.38484,
,,,0.096354000000,   0.38484,
,,,0.096356000000,   0.38484,
,,,0.096358000000,   0.38484,
,,,0.096360000000,   0.38484,
,,,0.096362000000,   0.38496,
,,,0.096364000000,   0.38496,
,,,0.096366000000,   0.38496,
,,,0.096368000000,   0.38496,
,,,0.096370000000,   0.38496,
,,,0.096372000000,   0.38496,
,,,0.096374000000,   0.38496,
,,,0.096376000000,   0.38496,
,,,0.096378000000,   0.38508,
,,,0.096380000000,   0.38508,
,,,0.096382000000,   0.38508,
,,,0.096384000000,   0.38508,
,,,0.096386000000,   0.38508,
