Data/032021/ALL0006/F0006CH2.CSV

Record Length,2.500000e+03,,   0.114880000000,  -0.74368,
Sample Interval,4.000000e-06,,   0.114884000000,  -0.74368,
Trigger Point,-2.872000000000e+04,,   0.114888000000,  -0.74368,
,,,   0.114892000000,  -0.74368,
,,,   0.114896000000,  -0.74368,
,,,   0.114900000000,  -0.74368,
Source,CH2,,   0.114904000000,  -0.74368,
Vertical Units,V,,   0.114908000000,  -0.73472,
Vertical Scale,2.240000e-01,,   0.114912000000,  -0.73472,
Vertical Offset,-2.508800e-01,,   0.114916000000,  -0.73472,
Horizontal Units,s,,   0.114920000000,  -0.73472,
Horizontal Scale,1.000000e-03,,   0.114924000000,  -0.73472,
Pt Fmt,Y,,   0.114928000000,  -0.73472,
Yzero,0.000000e+00,,   0.114932000000,  -0.73472,
Probe Atten,1.000000e+00,,   0.114936000000,  -0.73472,
Model Number,TDS2002C,,   0.114940000000,  -0.73472,
Serial Number,C013408,,   0.114944000000,  -0.72576,
Firmware Version,FV:v24.15,,   0.114948000000,  -0.72576,
,,,0.114952000000,  -0.72576,
,,,0.114956000000,  -0.72576,
,,,0.114960000000,  -0.72576,
,,,0.114964000000,  -0.72576,
,,,0.114968000000,  -0.72576,
,,,0.114972000000,  -0.72576,
,,,0.114976000000,  -0.71680,
,,,0.114980000000,  -0.71680,
,,,0.114984000000,  -0.71680,
,,,0.114988000000,  -0.71680,
,,,0.114992000000,  -0.71680,
,,,0.114996000000,  -0.71680,
,,,0.115000000000,  -0.71680,
,,,0.115004000000,  -0.71680,
,,,0.115008000000,  -0.71680,
,,,0.115012000000,  -0.71680,
,,,0.115016000000,  -0.70784,
,,,0.115020000000,  -0.70784,
,,,0.115024000000,  -0.70784,
,,,0.115028000000,  -0.70784,
,,,0.115032000000,  -0.70784,
,,,0.115036000000,  -0.70784,
,,,0.115040000000,  -0.70784,
,,,0.115044000000,  -0.70784,
,,,0.115048000000,  -0.70784,
,,,0.115052000000,  -0.69888,
,,,0.115056000000,  -0.69888,
,,,0.115060000000,  -0.69888,
,,,0.115064000000,  -0.69888,
,,,0.115068000000,  -0.69888,
,,,0.115072000000,  -0.69888,
,,,0.115076000000,  -0.69888,
,,,0.115080000000,  -0.69888,
,,,0.115084000000,  -0.69888,
,,,0.115088000000,  -0.69888,
,,,0.115092000000,  -0.68992,
,,,0.115096000000,  -0.68992,
,,,0.115100000000,  -0.68992,
,,,0.115104000000,  -0.68992,
,,,0.115108000000,  -0.68992,
,,,0.115112000000,  -0.68992,
,,,0.115116000000,  -0.68992,
,,,0.115120000000,  -0.68992,
,,,0.115124000000,  -0.68096,
,,,0.115128000000,  -0.68096,
,,,0.115132000000,  -0.68096,
,,,0.115136000000,  -0.68096,
,,,0.115140000000,  -0.68096,
,,,0.115144000000,  -0.68096,
,,,0.115148000000,  -0.68096,
,,,0.115152000000,  -0.68096,
,,,0.115156000000,  -0.68096,
,,,0.115160000000,  -0.68096,
,,,0.115164000000,  -0.67200,
,,,0.115168000000,  -0.67200,
,,,0.115172000000,  -0.67200,
,,,0.115176000000,  -0.67200,
,,,0.115180000000,  -0.67200,
,,,0.115184000000,  -0.67200,
,,,0.115188000000,  -0.67200,
,,,0.115192000000,  -0.67200,
,,,0.115196000000,  -0.66304,
,,,0.115200000000,  -0.66304,
,,,0.115204000000,  -0.66304,
,,,0.115208000000,  -0.66304,
,,,0.115212000000,  -0.66304,
,,,0.115216000000,  -0.66304,
,,,0.115220000000,  -0.66304,
,,,0.115224000000,  -0.66304,
,,,0.115228000000,  -0.65408,
,,,0.115232000000,  -0.65408,
,,,0.115236000000,  -0.65408,
,,,0.115240000000,  -0.65408,
,,,0.115244000000,  -0.65408,
,,,0.115248000000,  -0.65408,
,,,0.115252000000,  -0.65408,
,,,0.115256000000,  -0.65408,
,,,0.115260000000,  -0.65408,
,,,0.115264000000,  -0.65408,
,,,0.115268000000,  -0.65408,
,,,0.115272000000,  -0.64512,
,,,0.115276000000,  -0.64512,
,,,0.115280000000,  -0.64512,
,,,0.115284000000,  -0.64512,
,,,0.115288000000,  -0.64512,
,,,0.115292000000,  -0.64512,
,,,0.115296000000,  -0.64512,
,,,0.115300000000,  -0.64512,
,,,0.115304000000,  -0.64512,
,,,0.115308000000,  -0.63616,
,,,0.115312000000,  -0.63616,
,,,0.115316000000,  -0.63616,
,,,0.115320000000,  -0.63616,
,,,0.115324000000,  -0.63616,
,,,0.115328000000,  -0.63616,
,,,0.115332000000,  -0.63616,
,,,0.115336000000,  -0.63616,
,,,0.115340000000,  -0.63616,
,,,0.115344000000,  -0.63616,
,,,0.115348000000,  -0.62720,
,,,0.115352000000,  -0.62720,
,,,0.115356000000,  -0.62720,
,,,0.115360000000,  -0.62720,
,,,0.115364000000,  -0.62720,
,,,0.115368000000,  -0.62720,
,,,0.115372000000,  -0.62720,
,,,0.115376000000,  -0.62720,
,,,0.115380000000,  -0.62720,
,,,0.115384000000,  -0.61824,
,,,0.115388000000,  -0.61824,
,,,0.115392000000,  -0.61824,
,,,0.115396000000,  -0.61824,
,,,0.115400000000,  -0.61824,
,,,0.115404000000,  -0.61824,
,,,0.115408000000,  -0.61824,
,,,0.115412000000,  -0.61824,
,,,0.115416000000,  -0.61824,
,,,0.115420000000,  -0.60928,
,,,0.115424000000,  -0.60928,
,,,0.115428000000,  -0.60928,
,,,0.115432000000,  -0.60928,
,,,0.115436000000,  -0.60928,
,,,0.115440000000,  -0.60928,
,,,0.115444000000,  -0.60928,
,,,0.115448000000,  -0.60928,
,,,0.115452000000,  -0.60032,
,,,0.115456000000,  -0.60032,
,,,0.115460000000,  -0.60032,
,,,0.115464000000,  -0.60032,
,,,0.115468000000,  -0.60032,
,,,0.115472000000,  -0.60032,
,,,0.115476000000,  -0.60032,
,,,0.115480000000,  -0.60032,
,,,0.115484000000,  -0.60032,
,,,0.115488000000,  -0.59136,
,,,0.115492000000,  -0.59136,
,,,0.115496000000,  -0.59136,
,,,0.115500000000,  -0.59136,
,,,0.115504000000,  -0.59136,
,,,0.115508000000,  -0.59136,
,,,0.115512000000,  -0.59136,
,,,0.115516000000,  -0.59136,
,,,0.115520000000,  -0.59136,
,,,0.115524000000,  -0.59136,
,,,0.115528000000,  -0.59136,
,,,0.115532000000,  -0.58240,
,,,0.115536000000,  -0.58240,
,,,0.115540000000,  -0.58240,
,,,0.115544000000,  -0.58240,
,,,0.115548000000,  -0.58240,
,,,0.115552000000,  -0.58240,
,,,0.115556000000,  -0.58240,
,,,0.115560000000,  -0.58240,
,,,0.115564000000,  -0.58240,
,,,0.115568000000,  -0.58240,
,,,0.115572000000,  -0.57344,
,,,0.115576000000,  -0.57344,
,,,0.115580000000,  -0.57344,
,,,0.115584000000,  -0.57344,
,,,0.115588000000,  -0.57344,
,,,0.115592000000,  -0.57344,
,,,0.115596000000,  -0.56448,
,,,0.115600000000,  -0.57344,
,,,0.115604000000,  -0.57344,
,,,0.115608000000,  -0.56448,
,,,0.115612000000,  -0.56448,
,,,0.115616000000,  -0.56448,
,,,0.115620000000,  -0.56448,
,,,0.115624000000,  -0.56448,
,,,0.115628000000,  -0.56448,
,,,0.115632000000,  -0.56448,
,,,0.115636000000,  -0.56448,
,,,0.115640000000,  -0.55552,
,,,0.115644000000,  -0.56448,
,,,0.115648000000,  -0.55552,
,,,0.115652000000,  -0.55552,
,,,0.115656000000,  -0.55552,
,,,0.115660000000,  -0.55552,
,,,0.115664000000,  -0.55552,
,,,0.115668000000,  -0.55552,
,,,0.115672000000,  -0.55552,
,,,0.115676000000,  -0.55552,
,,,0.115680000000,  -0.55552,
,,,0.115684000000,  -0.54656,
,,,0.115688000000,  -0.54656,
,,,0.115692000000,  -0.54656,
,,,0.115696000000,  -0.54656,
,,,0.115700000000,  -0.54656,
,,,0.115704000000,  -0.54656,
,,,0.115708000000,  -0.54656,
,,,0.115712000000,  -0.54656,
,,,0.115716000000,  -0.54656,
,,,0.115720000000,  -0.53760,
,,,0.115724000000,  -0.53760,
,,,0.115728000000,  -0.53760,
,,,0.115732000000,  -0.53760,
,,,0.115736000000,  -0.53760,
,,,0.115740000000,  -0.53760,
,,,0.115744000000,  -0.53760,
,,,0.115748000000,  -0.53760,
,,,0.115752000000,  -0.53760,
,,,0.115756000000,  -0.53760,
,,,0.115760000000,  -0.53760,
,,,0.115764000000,  -0.52864,
,,,0.115768000000,  -0.52864,
,,,0.115772000000,  -0.52864,
,,,0.115776000000,  -0.52864,
,,,0.115780000000,  -0.52864,
,,,0.115784000000,  -0.52864,
,,,0.115788000000,  -0.52864,
,,,0.115792000000,  -0.52864,
,,,0.115796000000,  -0.51968,
,,,0.115800000000,  -0.51968,
,,,0.115804000000,  -0.51968,
,,,0.115808000000,  -0.51968,
,,,0.115812000000,  -0.51968,
,,,0.115816000000,  -0.51968,
,,,0.115820000000,  -0.51968,
,,,0.115824000000,  -0.51968,
,,,0.115828000000,  -0.51968,
,,,0.115832000000,  -0.51968,
,,,0.115836000000,  -0.51968,
,,,0.115840000000,  -0.51072,
,,,0.115844000000,  -0.51072,
,,,0.115848000000,  -0.51072,
,,,0.115852000000,  -0.51072,
,,,0.115856000000,  -0.51072,
,,,0.115860000000,  -0.51072,
,,,0.115864000000,  -0.51072,
,,,0.115868000000,  -0.51072,
,,,0.115872000000,  -0.51072,
,,,0.115876000000,  -0.50176,
,,,0.115880000000,  -0.50176,
,,,0.115884000000,  -0.50176,
,,,0.115888000000,  -0.50176,
,,,0.115892000000,  -0.50176,
,,,0.115896000000,  -0.50176,
,,,0.115900000000,  -0.50176,
,,,0.115904000000,  -0.50176,
,,,0.115908000000,  -0.50176,
,,,0.115912000000,  -0.50176,
,,,0.115916000000,  -0.49280,
,,,0.115920000000,  -0.49280,
,,,0.115924000000,  -0.49280,
,,,0.115928000000,  -0.49280,
,,,0.115932000000,  -0.49280,
,,,0.115936000000,  -0.49280,
,,,0.115940000000,  -0.49280,
,,,0.115944000000,  -0.49280,
,,,0.115948000000,  -0.49280,
,,,0.115952000000,  -0.49280,
,,,0.115956000000,  -0.48384,
,,,0.115960000000,  -0.48384,
,,,0.115964000000,  -0.48384,
,,,0.115968000000,  -0.48384,
,,,0.115972000000,  -0.48384,
,,,0.115976000000,  -0.48384,
,,,0.115980000000,  -0.48384,
,,,0.115984000000,  -0.48384,
,,,0.115988000000,  -0.48384,
,,,0.115992000000,  -0.48384,
,,,0.115996000000,  -0.48384,
,,,0.116000000000,  -0.48384,
,,,0.116004000000,  -0.48384,
,,,0.116008000000,  -0.48384,
,,,0.116012000000,  -0.48384,
,,,0.116016000000,  -0.48384,
,,,0.116020000000,  -0.47488,
,,,0.116024000000,  -0.47488,
,,,0.116028000000,  -0.47488,
,,,0.116032000000,  -0.47488,
,,,0.116036000000,  -0.47488,
,,,0.116040000000,  -0.47488,
,,,0.116044000000,  -0.47488,
,,,0.116048000000,  -0.47488,
,,,0.116052000000,  -0.47488,
,,,0.116056000000,  -0.46592,
,,,0.116060000000,  -0.46592,
,,,0.116064000000,  -0.46592,
,,,0.116068000000,  -0.46592,
,,,0.116072000000,  -0.46592,
,,,0.116076000000,  -0.46592,
,,,0.116080000000,  -0.46592,
,,,0.116084000000,  -0.46592,
,,,0.116088000000,  -0.46592,
,,,0.116092000000,  -0.46592,
,,,0.116096000000,  -0.45696,
,,,0.116100000000,  -0.46592,
,,,0.116104000000,  -0.45696,
,,,0.116108000000,  -0.45696,
,,,0.116112000000,  -0.45696,
,,,0.116116000000,  -0.45696,
,,,0.116120000000,  -0.45696,
,,,0.116124000000,  -0.45696,
,,,0.116128000000,  -0.45696,
,,,0.116132000000,  -0.45696,
,,,0.116136000000,  -0.45696,
,,,0.116140000000,  -0.44800,
,,,0.116144000000,  -0.44800,
,,,0.116148000000,  -0.44800,
,,,0.116152000000,  -0.44800,
,,,0.116156000000,  -0.44800,
,,,0.116160000000,  -0.44800,
,,,0.116164000000,  -0.44800,
,,,0.116168000000,  -0.44800,
,,,0.116172000000,  -0.44800,
,,,0.116176000000,  -0.44800,
,,,0.116180000000,  -0.43904,
,,,0.116184000000,  -0.43904,
,,,0.116188000000,  -0.43904,
,,,0.116192000000,  -0.43904,
,,,0.116196000000,  -0.43904,
,,,0.116200000000,  -0.43904,
,,,0.116204000000,  -0.43904,
,,,0.116208000000,  -0.43008,
,,,0.116212000000,  -0.43008,
,,,0.116216000000,  -0.43008,
,,,0.116220000000,  -0.43008,
,,,0.116224000000,  -0.43008,
,,,0.116228000000,  -0.43008,
,,,0.116232000000,  -0.43008,
,,,0.116236000000,  -0.43008,
,,,0.116240000000,  -0.43008,
,,,0.116244000000,  -0.43008,
,,,0.116248000000,  -0.42112,
,,,0.116252000000,  -0.42112,
,,,0.116256000000,  -0.42112,
,,,0.116260000000,  -0.42112,
,,,0.116264000000,  -0.42112,
,,,0.116268000000,  -0.42112,
,,,0.116272000000,  -0.42112,
,,,0.116276000000,  -0.42112,
,,,0.116280000000,  -0.42112,
,,,0.116284000000,  -0.42112,
,,,0.116288000000,  -0.41216,
,,,0.116292000000,  -0.41216,
,,,0.116296000000,  -0.41216,
,,,0.116300000000,  -0.41216,
,,,0.116304000000,  -0.41216,
,,,0.116308000000,  -0.41216,
,,,0.116312000000,  -0.41216,
,,,0.116316000000,  -0.41216,
,,,0.116320000000,  -0.41216,
,,,0.116324000000,  -0.41216,
,,,0.116328000000,  -0.40320,
,,,0.116332000000,  -0.40320,
,,,0.116336000000,  -0.40320,
,,,0.116340000000,  -0.40320,
,,,0.116344000000,  -0.40320,
,,,0.116348000000,  -0.40320,
,,,0.116352000000,  -0.40320,
,,,0.116356000000,  -0.40320,
,,,0.116360000000,  -0.40320,
,,,0.116364000000,  -0.40320,
,,,0.116368000000,  -0.40320,
,,,0.116372000000,  -0.39424,
,,,0.116376000000,  -0.39424,
,,,0.116380000000,  -0.39424,
,,,0.116384000000,  -0.39424,
,,,0.116388000000,  -0.39424,
,,,0.116392000000,  -0.39424,
,,,0.116396000000,  -0.39424,
,,,0.116400000000,  -0.39424,
,,,0.116404000000,  -0.39424,
,,,0.116408000000,  -0.39424,
,,,0.116412000000,  -0.38528,
,,,0.116416000000,  -0.38528,
,,,0.116420000000,  -0.38528,
,,,0.116424000000,  -0.38528,
,,,0.116428000000,  -0.38528,
,,,0.116432000000,  -0.38528,
,,,0.116436000000,  -0.38528,
,,,0.116440000000,  -0.38528,
,,,0.116444000000,  -0.38528,
,,,0.116448000000,  -0.37632,
,,,0.116452000000,  -0.37632,
,,,0.116456000000,  -0.37632,
,,,0.116460000000,  -0.37632,
,,,0.116464000000,  -0.37632,
,,,0.116468000000,  -0.37632,
,,,0.116472000000,  -0.37632,
,,,0.116476000000,  -0.37632,
,,,0.116480000000,  -0.37632,
,,,0.116484000000,  -0.37632,
,,,0.116488000000,  -0.36736,
,,,0.116492000000,  -0.36736,
,,,0.116496000000,  -0.36736,
,,,0.116500000000,  -0.36736,
,,,0.116504000000,  -0.36736,
,,,0.116508000000,  -0.36736,
,,,0.116512000000,  -0.36736,
,,,0.116516000000,  -0.36736,
,,,0.116520000000,  -0.36736,
,,,0.116524000000,  -0.36736,
,,,0.116528000000,  -0.36736,
,,,0.116532000000,  -0.35840,
,,,0.116536000000,  -0.35840,
,,,0.116540000000,  -0.35840,
,,,0.116544000000,  -0.35840,
,,,0.116548000000,  -0.35840,
,,,0.116552000000,  -0.35840,
,,,0.116556000000,  -0.35840,
,,,0.116560000000,  -0.35840,
,,,0.116564000000,  -0.35840,
,,,0.116568000000,  -0.34944,
,,,0.116572000000,  -0.34944,
,,,0.116576000000,  -0.34944,
,,,0.116580000000,  -0.34944,
,,,0.116584000000,  -0.34944,
,,,0.116588000000,  -0.34944,
,,,0.116592000000,  -0.34944,
,,,0.116596000000,  -0.34944,
,,,0.116600000000,  -0.34944,
,,,0.116604000000,  -0.34944,
,,,0.116608000000,  -0.34048,
,,,0.116612000000,  -0.34048,
,,,0.116616000000,  -0.34048,
,,,0.116620000000,  -0.34048,
,,,0.116624000000,  -0.34048,
,,,0.116628000000,  -0.34048,
,,,0.116632000000,  -0.34048,
,,,0.116636000000,  -0.34048,
,,,0.116640000000,  -0.34048,
,,,0.116644000000,  -0.34048,
,,,0.116648000000,  -0.34048,
,,,0.116652000000,  -0.34048,
,,,0.116656000000,  -0.33152,
,,,0.116660000000,  -0.33152,
,,,0.116664000000,  -0.33152,
,,,0.116668000000,  -0.33152,
,,,0.116672000000,  -0.33152,
,,,0.116676000000,  -0.33152,
,,,0.116680000000,  -0.33152,
,,,0.116684000000,  -0.32256,
,,,0.116688000000,  -0.33152,
,,,0.116692000000,  -0.32256,
,,,0.116696000000,  -0.32256,
,,,0.116700000000,  -0.32256,
,,,0.116704000000,  -0.32256,
,,,0.116708000000,  -0.32256,
,,,0.116712000000,  -0.32256,
,,,0.116716000000,  -0.32256,
,,,0.116720000000,  -0.32256,
,,,0.116724000000,  -0.32256,
,,,0.116728000000,  -0.31360,
,,,0.116732000000,  -0.31360,
,,,0.116736000000,  -0.31360,
,,,0.116740000000,  -0.31360,
,,,0.116744000000,  -0.31360,
,,,0.116748000000,  -0.31360,
,,,0.116752000000,  -0.31360,
,,,0.116756000000,  -0.31360,
,,,0.116760000000,  -0.31360,
,,,0.116764000000,  -0.31360,
,,,0.116768000000,  -0.30464,
,,,0.116772000000,  -0.30464,
,,,0.116776000000,  -0.30464,
,,,0.116780000000,  -0.30464,
,,,0.116784000000,  -0.30464,
,,,0.116788000000,  -0.30464,
,,,0.116792000000,  -0.30464,
,,,0.116796000000,  -0.30464,
,,,0.116800000000,  -0.30464,
,,,0.116804000000,  -0.30464,
,,,0.116808000000,  -0.30464,
,,,0.116812000000,  -0.30464,
,,,0.116816000000,  -0.29568,
,,,0.116820000000,  -0.29568,
,,,0.116824000000,  -0.29568,
,,,0.116828000000,  -0.29568,
,,,0.116832000000,  -0.29568,
,,,0.116836000000,  -0.29568,
,,,0.116840000000,  -0.29568,
,,,0.116844000000,  -0.29568,
,,,0.116848000000,  -0.28672,
,,,0.116852000000,  -0.28672,
,,,0.116856000000,  -0.28672,
,,,0.116860000000,  -0.28672,
,,,0.116864000000,  -0.28672,
,,,0.116868000000,  -0.28672,
,,,0.116872000000,  -0.28672,
,,,0.116876000000,  -0.28672,
,,,0.116880000000,  -0.28672,
,,,0.116884000000,  -0.28672,
,,,0.116888000000,  -0.28672,
,,,0.116892000000,  -0.28672,
,,,0.116896000000,  -0.28672,
,,,0.116900000000,  -0.27776,
,,,0.116904000000,  -0.27776,
,,,0.116908000000,  -0.27776,
,,,0.116912000000,  -0.27776,
,,,0.116916000000,  -0.27776,
,,,0.116920000000,  -0.27776,
,,,0.116924000000,  -0.27776,
,,,0.116928000000,  -0.27776,
,,,0.116932000000,  -0.27776,
,,,0.116936000000,  -0.27776,
,,,0.116940000000,  -0.27776,
,,,0.116944000000,  -0.26880,
,,,0.116948000000,  -0.26880,
,,,0.116952000000,  -0.27776,
,,,0.116956000000,  -0.26880,
,,,0.116960000000,  -0.26880,
,,,0.116964000000,  -0.26880,
,,,0.116968000000,  -0.26880,
,,,0.116972000000,  -0.26880,
,,,0.116976000000,  -0.26880,
,,,0.116980000000,  -0.26880,
,,,0.116984000000,  -0.26880,
,,,0.116988000000,  -0.26880,
,,,0.116992000000,  -0.25984,
,,,0.116996000000,  -0.25984,
,,,0.117000000000,  -0.25984,
,,,0.117004000000,  -0.25984,
,,,0.117008000000,  -0.25984,
,,,0.117012000000,  -0.25984,
,,,0.117016000000,  -0.25984,
,,,0.117020000000,  -0.25984,
,,,0.117024000000,  -0.25984,
,,,0.117028000000,  -0.25984,
,,,0.117032000000,  -0.25984,
,,,0.117036000000,  -0.25984,
,,,0.117040000000,  -0.25088,
,,,0.117044000000,  -0.25088,
,,,0.117048000000,  -0.25088,
,,,0.117052000000,  -0.25088,
,,,0.117056000000,  -0.25088,
,,,0.117060000000,  -0.25088,
,,,0.117064000000,  -0.25088,
,,,0.117068000000,  -0.25088,
,,,0.117072000000,  -0.25088,
,,,0.117076000000,  -0.25088,
,,,0.117080000000,  -0.24192,
,,,0.117084000000,  -0.24192,
,,,0.117088000000,  -0.24192,
,,,0.117092000000,  -0.24192,
,,,0.117096000000,  -0.24192,
,,,0.117100000000,  -0.24192,
,,,0.117104000000,  -0.24192,
,,,0.117108000000,  -0.24192,
,,,0.117112000000,  -0.23296,
,,,0.117116000000,  -0.23296,
,,,0.117120000000,  -0.23296,
,,,0.117124000000,  -0.23296,
,,,0.117128000000,  -0.23296,
,,,0.117132000000,  -0.23296,
,,,0.117136000000,  -0.23296,
,,,0.117140000000,  -0.23296,
,,,0.117144000000,  -0.23296,
,,,0.117148000000,  -0.23296,
,,,0.117152000000,  -0.23296,
,,,0.117156000000,  -0.22400,
,,,0.117160000000,  -0.22400,
,,,0.117164000000,  -0.22400,
,,,0.117168000000,  -0.22400,
,,,0.117172000000,  -0.22400,
,,,0.117176000000,  -0.22400,
,,,0.117180000000,  -0.22400,
,,,0.117184000000,  -0.22400,
,,,0.117188000000,  -0.22400,
,,,0.117192000000,  -0.21504,
,,,0.117196000000,  -0.21504,
,,,0.117200000000,  -0.21504,
,,,0.117204000000,  -0.21504,
,,,0.117208000000,  -0.21504,
,,,0.117212000000,  -0.21504,
,,,0.117216000000,  -0.21504,
,,,0.117220000000,  -0.21504,
,,,0.117224000000,  -0.21504,
,,,0.117228000000,  -0.21504,
,,,0.117232000000,  -0.20608,
,,,0.117236000000,  -0.20608,
,,,0.117240000000,  -0.20608,
,,,0.117244000000,  -0.20608,
,,,0.117248000000,  -0.20608,
,,,0.117252000000,  -0.20608,
,,,0.117256000000,  -0.20608,
,,,0.117260000000,  -0.20608,
,,,0.117264000000,  -0.20608,
,,,0.117268000000,  -0.20608,
,,,0.117272000000,  -0.19712,
,,,0.117276000000,  -0.19712,
,,,0.117280000000,  -0.19712,
,,,0.117284000000,  -0.19712,
,,,0.117288000000,  -0.19712,
,,,0.117292000000,  -0.19712,
,,,0.117296000000,  -0.19712,
,,,0.117300000000,  -0.19712,
,,,0.117304000000,  -0.19712,
,,,0.117308000000,  -0.19712,
,,,0.117312000000,  -0.19712,
,,,0.117316000000,  -0.19712,
,,,0.117320000000,  -0.18816,
,,,0.117324000000,  -0.18816,
,,,0.117328000000,  -0.18816,
,,,0.117332000000,  -0.18816,
,,,0.117336000000,  -0.18816,
,,,0.117340000000,  -0.18816,
,,,0.117344000000,  -0.18816,
,,,0.117348000000,  -0.18816,
,,,0.117352000000,  -0.18816,
,,,0.117356000000,  -0.18816,
,,,0.117360000000,  -0.17920,
,,,0.117364000000,  -0.17920,
,,,0.117368000000,  -0.17920,
,,,0.117372000000,  -0.17920,
,,,0.117376000000,  -0.17920,
,,,0.117380000000,  -0.17920,
,,,0.117384000000,  -0.17920,
,,,0.117388000000,  -0.17920,
,,,0.117392000000,  -0.17920,
,,,0.117396000000,  -0.17920,
,,,0.117400000000,  -0.17024,
,,,0.117404000000,  -0.17024,
,,,0.117408000000,  -0.17024,
,,,0.117412000000,  -0.17024,
,,,0.117416000000,  -0.17024,
,,,0.117420000000,  -0.17024,
,,,0.117424000000,  -0.17024,
,,,0.117428000000,  -0.17024,
,,,0.117432000000,  -0.17024,
,,,0.117436000000,  -0.17024,
,,,0.117440000000,  -0.17024,
,,,0.117444000000,  -0.17024,
,,,0.117448000000,  -0.16128,
,,,0.117452000000,  -0.16128,
,,,0.117456000000,  -0.16128,
,,,0.117460000000,  -0.16128,
,,,0.117464000000,  -0.16128,
,,,0.117468000000,  -0.16128,
,,,0.117472000000,  -0.16128,
,,,0.117476000000,  -0.16128,
,,,0.117480000000,  -0.16128,
,,,0.117484000000,  -0.16128,
,,,0.117488000000,  -0.15232,
,,,0.117492000000,  -0.15232,
