Data/031721/ALL0003/F0003CH1.CSV

Record Length,2.500000e+03,,   0.077940000000,   0.04536,
Sample Interval,2.000000e-06,,   0.077942000000,   0.04536,
Trigger Point,-3.897000000000e+04,,   0.077944000000,   0.04536,
,,,   0.077946000000,   0.04528,
,,,   0.077948000000,   0.04528,
,,,   0.077950000000,   0.04528,
Source,CH1,,   0.077952000000,   0.04528,
Vertical Units,V,,   0.077954000000,   0.04528,
Vertical Scale,2.000000e-03,,   0.077956000000,   0.04528,
Vertical Offset,-4.264000e-02,,   0.077958000000,   0.04528,
Horizontal Units,s,,   0.077960000000,   0.04528,
Horizontal Scale,5.000000e-04,,   0.077962000000,   0.04528,
Pt Fmt,Y,,   0.077964000000,   0.04520,
Yzero,0.000000e+00,,   0.077966000000,   0.04520,
Probe Atten,1.000000e+00,,   0.077968000000,   0.04520,
Model Number,TDS2002C,,   0.077970000000,   0.04512,
Serial Number,C013408,,   0.077972000000,   0.04512,
Firmware Version,FV:v24.15,,   0.077974000000,   0.04520,
,,,0.077976000000,   0.04520,
,,,0.077978000000,   0.04520,
,,,0.077980000000,   0.04520,
,,,0.077982000000,   0.04520,
,,,0.077984000000,   0.04520,
,,,0.077986000000,   0.04520,
,,,0.077988000000,   0.04520,
,,,0.077990000000,   0.04520,
,,,0.077992000000,   0.04520,
,,,0.077994000000,   0.04520,
,,,0.077996000000,   0.04520,
,,,0.077998000000,   0.04512,
,,,0.078000000000,   0.04520,
,,,0.078002000000,   0.04520,
,,,0.078004000000,   0.04520,
,,,0.078006000000,   0.04520,
,,,0.078008000000,   0.04512,
,,,0.078010000000,   0.04512,
,,,0.078012000000,   0.04520,
,,,0.078014000000,   0.04512,
,,,0.078016000000,   0.04512,
,,,0.078018000000,   0.04512,
,,,0.078020000000,   0.04512,
,,,0.078022000000,   0.04512,
,,,0.078024000000,   0.04520,
,,,0.078026000000,   0.04520,
,,,0.078028000000,   0.04520,
,,,0.078030000000,   0.04520,
,,,0.078032000000,   0.04520,
,,,0.078034000000,   0.04512,
,,,0.078036000000,   0.04520,
,,,0.078038000000,   0.04512,
,,,0.078040000000,   0.04520,
,,,0.078042000000,   0.04512,
,,,0.078044000000,   0.04520,
,,,0.078046000000,   0.04512,
,,,0.078048000000,   0.04512,
,,,0.078050000000,   0.04512,
,,,0.078052000000,   0.04504,
,,,0.078054000000,   0.04504,
,,,0.078056000000,   0.04504,
,,,0.078058000000,   0.04512,
,,,0.078060000000,   0.04504,
,,,0.078062000000,   0.04504,
,,,0.078064000000,   0.04504,
,,,0.078066000000,   0.04504,
,,,0.078068000000,   0.04504,
,,,0.078070000000,   0.04504,
,,,0.078072000000,   0.04504,
,,,0.078074000000,   0.04512,
,,,0.078076000000,   0.04512,
,,,0.078078000000,   0.04512,
,,,0.078080000000,   0.04504,
,,,0.078082000000,   0.04512,
,,,0.078084000000,   0.04504,
,,,0.078086000000,   0.04504,
,,,0.078088000000,   0.04504,
,,,0.078090000000,   0.04512,
,,,0.078092000000,   0.04512,
,,,0.078094000000,   0.04512,
,,,0.078096000000,   0.04504,
,,,0.078098000000,   0.04504,
,,,0.078100000000,   0.04504,
,,,0.078102000000,   0.04504,
,,,0.078104000000,   0.04504,
,,,0.078106000000,   0.04512,
,,,0.078108000000,   0.04512,
,,,0.078110000000,   0.04512,
,,,0.078112000000,   0.04512,
,,,0.078114000000,   0.04512,
,,,0.078116000000,   0.04512,
,,,0.078118000000,   0.04512,
,,,0.078120000000,   0.04512,
,,,0.078122000000,   0.04520,
,,,0.078124000000,   0.04512,
,,,0.078126000000,   0.04512,
,,,0.078128000000,   0.04512,
,,,0.078130000000,   0.04504,
,,,0.078132000000,   0.04512,
,,,0.078134000000,   0.04504,
,,,0.078136000000,   0.04512,
,,,0.078138000000,   0.04504,
,,,0.078140000000,   0.04504,
,,,0.078142000000,   0.04504,
,,,0.078144000000,   0.04504,
,,,0.078146000000,   0.04496,
,,,0.078148000000,   0.04504,
,,,0.078150000000,   0.04504,
,,,0.078152000000,   0.04504,
,,,0.078154000000,   0.04504,
,,,0.078156000000,   0.04512,
,,,0.078158000000,   0.04512,
,,,0.078160000000,   0.04512,
,,,0.078162000000,   0.04512,
,,,0.078164000000,   0.04512,
,,,0.078166000000,   0.04504,
,,,0.078168000000,   0.04504,
,,,0.078170000000,   0.04512,
,,,0.078172000000,   0.04512,
,,,0.078174000000,   0.04504,
,,,0.078176000000,   0.04504,
,,,0.078178000000,   0.04504,
,,,0.078180000000,   0.04504,
,,,0.078182000000,   0.04512,
,,,0.078184000000,   0.04504,
,,,0.078186000000,   0.04504,
,,,0.078188000000,   0.04504,
,,,0.078190000000,   0.04504,
,,,0.078192000000,   0.04504,
,,,0.078194000000,   0.04504,
,,,0.078196000000,   0.04496,
,,,0.078198000000,   0.04504,
,,,0.078200000000,   0.04504,
,,,0.078202000000,   0.04504,
,,,0.078204000000,   0.04504,
,,,0.078206000000,   0.04504,
,,,0.078208000000,   0.04496,
,,,0.078210000000,   0.04504,
,,,0.078212000000,   0.04504,
,,,0.078214000000,   0.04504,
,,,0.078216000000,   0.04504,
,,,0.078218000000,   0.04496,
,,,0.078220000000,   0.04496,
,,,0.078222000000,   0.04496,
,,,0.078224000000,   0.04504,
,,,0.078226000000,   0.04504,
,,,0.078228000000,   0.04504,
,,,0.078230000000,   0.04504,
,,,0.078232000000,   0.04504,
,,,0.078234000000,   0.04496,
,,,0.078236000000,   0.04496,
,,,0.078238000000,   0.04496,
,,,0.078240000000,   0.04496,
,,,0.078242000000,   0.04496,
,,,0.078244000000,   0.04496,
,,,0.078246000000,   0.04496,
,,,0.078248000000,   0.04496,
,,,0.078250000000,   0.04496,
,,,0.078252000000,   0.04496,
,,,0.078254000000,   0.04504,
,,,0.078256000000,   0.04496,
,,,0.078258000000,   0.04504,
,,,0.078260000000,   0.04504,
,,,0.078262000000,   0.04496,
,,,0.078264000000,   0.04496,
,,,0.078266000000,   0.04496,
,,,0.078268000000,   0.04496,
,,,0.078270000000,   0.04504,
,,,0.078272000000,   0.04496,
,,,0.078274000000,   0.04496,
,,,0.078276000000,   0.04496,
,,,0.078278000000,   0.04496,
,,,0.078280000000,   0.04504,
,,,0.078282000000,   0.04496,
,,,0.078284000000,   0.04504,
,,,0.078286000000,   0.04504,
,,,0.078288000000,   0.04496,
,,,0.078290000000,   0.04496,
,,,0.078292000000,   0.04504,
,,,0.078294000000,   0.04504,
,,,0.078296000000,   0.04504,
,,,0.078298000000,   0.04504,
,,,0.078300000000,   0.04504,
,,,0.078302000000,   0.04504,
,,,0.078304000000,   0.04504,
,,,0.078306000000,   0.04504,
,,,0.078308000000,   0.04504,
,,,0.078310000000,   0.04504,
,,,0.078312000000,   0.04504,
,,,0.078314000000,   0.04512,
,,,0.078316000000,   0.04504,
,,,0.078318000000,   0.04504,
,,,0.078320000000,   0.04504,
,,,0.078322000000,   0.04504,
,,,0.078324000000,   0.04496,
,,,0.078326000000,   0.04504,
,,,0.078328000000,   0.04504,
,,,0.078330000000,   0.04504,
,,,0.078332000000,   0.04504,
,,,0.078334000000,   0.04504,
,,,0.078336000000,   0.04504,
,,,0.078338000000,   0.04504,
,,,0.078340000000,   0.04504,
,,,0.078342000000,   0.04504,
,,,0.078344000000,   0.04504,
,,,0.078346000000,   0.04504,
,,,0.078348000000,   0.04504,
,,,0.078350000000,   0.04512,
,,,0.078352000000,   0.04512,
,,,0.078354000000,   0.04512,
,,,0.078356000000,   0.04504,
,,,0.078358000000,   0.04504,
,,,0.078360000000,   0.04504,
,,,0.078362000000,   0.04512,
,,,0.078364000000,   0.04512,
,,,0.078366000000,   0.04512,
,,,0.078368000000,   0.04504,
,,,0.078370000000,   0.04504,
,,,0.078372000000,   0.04504,
,,,0.078374000000,   0.04504,
,,,0.078376000000,   0.04512,
,,,0.078378000000,   0.04512,
,,,0.078380000000,   0.04504,
,,,0.078382000000,   0.04504,
,,,0.078384000000,   0.04504,
,,,0.078386000000,   0.04512,
,,,0.078388000000,   0.04512,
,,,0.078390000000,   0.04504,
,,,0.078392000000,   0.04512,
,,,0.078394000000,   0.04512,
,,,0.078396000000,   0.04512,
,,,0.078398000000,   0.04504,
,,,0.078400000000,   0.04504,
,,,0.078402000000,   0.04504,
,,,0.078404000000,   0.04512,
,,,0.078406000000,   0.04512,
,,,0.078408000000,   0.04504,
,,,0.078410000000,   0.04504,
,,,0.078412000000,   0.04496,
,,,0.078414000000,   0.04512,
,,,0.078416000000,   0.04512,
,,,0.078418000000,   0.04504,
,,,0.078420000000,   0.04504,
,,,0.078422000000,   0.04504,
,,,0.078424000000,   0.04504,
,,,0.078426000000,   0.04504,
,,,0.078428000000,   0.04504,
,,,0.078430000000,   0.04504,
,,,0.078432000000,   0.04504,
,,,0.078434000000,   0.04504,
,,,0.078436000000,   0.04504,
,,,0.078438000000,   0.04504,
,,,0.078440000000,   0.04504,
,,,0.078442000000,   0.04512,
,,,0.078444000000,   0.04504,
,,,0.078446000000,   0.04504,
,,,0.078448000000,   0.04504,
,,,0.078450000000,   0.04504,
,,,0.078452000000,   0.04512,
,,,0.078454000000,   0.04504,
,,,0.078456000000,   0.04504,
,,,0.078458000000,   0.04504,
,,,0.078460000000,   0.04504,
,,,0.078462000000,   0.04504,
,,,0.078464000000,   0.04512,
,,,0.078466000000,   0.04512,
,,,0.078468000000,   0.04512,
,,,0.078470000000,   0.04512,
,,,0.078472000000,   0.04504,
,,,0.078474000000,   0.04512,
,,,0.078476000000,   0.04512,
,,,0.078478000000,   0.04504,
,,,0.078480000000,   0.04504,
,,,0.078482000000,   0.04504,
,,,0.078484000000,   0.04512,
,,,0.078486000000,   0.04512,
,,,0.078488000000,   0.04512,
,,,0.078490000000,   0.04512,
,,,0.078492000000,   0.04504,
,,,0.078494000000,   0.04512,
,,,0.078496000000,   0.04504,
,,,0.078498000000,   0.04512,
,,,0.078500000000,   0.04512,
,,,0.078502000000,   0.04512,
,,,0.078504000000,   0.04512,
,,,0.078506000000,   0.04504,
,,,0.078508000000,   0.04504,
,,,0.078510000000,   0.04512,
,,,0.078512000000,   0.04512,
,,,0.078514000000,   0.04512,
,,,0.078516000000,   0.04520,
,,,0.078518000000,   0.04512,
,,,0.078520000000,   0.04504,
,,,0.078522000000,   0.04512,
,,,0.078524000000,   0.04512,
,,,0.078526000000,   0.04512,
,,,0.078528000000,   0.04512,
,,,0.078530000000,   0.04504,
,,,0.078532000000,   0.04504,
,,,0.078534000000,   0.04504,
,,,0.078536000000,   0.04504,
,,,0.078538000000,   0.04504,
,,,0.078540000000,   0.04504,
,,,0.078542000000,   0.04504,
,,,0.078544000000,   0.04504,
,,,0.078546000000,   0.04504,
,,,0.078548000000,   0.04496,
,,,0.078550000000,   0.04504,
,,,0.078552000000,   0.04496,
,,,0.078554000000,   0.04496,
,,,0.078556000000,   0.04496,
,,,0.078558000000,   0.04496,
,,,0.078560000000,   0.04496,
,,,0.078562000000,   0.04496,
,,,0.078564000000,   0.04496,
,,,0.078566000000,   0.04496,
,,,0.078568000000,   0.04496,
,,,0.078570000000,   0.04496,
,,,0.078572000000,   0.04496,
,,,0.078574000000,   0.04488,
,,,0.078576000000,   0.04496,
,,,0.078578000000,   0.04496,
,,,0.078580000000,   0.04504,
,,,0.078582000000,   0.04496,
,,,0.078584000000,   0.04496,
,,,0.078586000000,   0.04496,
,,,0.078588000000,   0.04496,
,,,0.078590000000,   0.04504,
,,,0.078592000000,   0.04504,
,,,0.078594000000,   0.04504,
,,,0.078596000000,   0.04504,
,,,0.078598000000,   0.04496,
,,,0.078600000000,   0.04504,
,,,0.078602000000,   0.04504,
,,,0.078604000000,   0.04504,
,,,0.078606000000,   0.04504,
,,,0.078608000000,   0.04504,
,,,0.078610000000,   0.04504,
,,,0.078612000000,   0.04504,
,,,0.078614000000,   0.04504,
,,,0.078616000000,   0.04512,
,,,0.078618000000,   0.04504,
,,,0.078620000000,   0.04504,
,,,0.078622000000,   0.04512,
,,,0.078624000000,   0.04512,
,,,0.078626000000,   0.04512,
,,,0.078628000000,   0.04512,
,,,0.078630000000,   0.04512,
,,,0.078632000000,   0.04512,
,,,0.078634000000,   0.04504,
,,,0.078636000000,   0.04512,
,,,0.078638000000,   0.04512,
,,,0.078640000000,   0.04504,
,,,0.078642000000,   0.04512,
,,,0.078644000000,   0.04512,
,,,0.078646000000,   0.04512,
,,,0.078648000000,   0.04512,
,,,0.078650000000,   0.04512,
,,,0.078652000000,   0.04512,
,,,0.078654000000,   0.04512,
,,,0.078656000000,   0.04512,
,,,0.078658000000,   0.04512,
,,,0.078660000000,   0.04512,
,,,0.078662000000,   0.04520,
,,,0.078664000000,   0.04520,
,,,0.078666000000,   0.04512,
,,,0.078668000000,   0.04512,
,,,0.078670000000,   0.04520,
,,,0.078672000000,   0.04512,
,,,0.078674000000,   0.04512,
,,,0.078676000000,   0.04512,
,,,0.078678000000,   0.04520,
,,,0.078680000000,   0.04520,
,,,0.078682000000,   0.04520,
,,,0.078684000000,   0.04520,
,,,0.078686000000,   0.04520,
,,,0.078688000000,   0.04520,
,,,0.078690000000,   0.04520,
,,,0.078692000000,   0.04512,
,,,0.078694000000,   0.04520,
,,,0.078696000000,   0.04520,
,,,0.078698000000,   0.04512,
,,,0.078700000000,   0.04520,
,,,0.078702000000,   0.04520,
,,,0.078704000000,   0.04520,
,,,0.078706000000,   0.04520,
,,,0.078708000000,   0.04512,
,,,0.078710000000,   0.04520,
,,,0.078712000000,   0.04520,
,,,0.078714000000,   0.04520,
,,,0.078716000000,   0.04520,
,,,0.078718000000,   0.04512,
,,,0.078720000000,   0.04512,
,,,0.078722000000,   0.04520,
,,,0.078724000000,   0.04512,
,,,0.078726000000,   0.04520,
,,,0.078728000000,   0.04520,
,,,0.078730000000,   0.04512,
,,,0.078732000000,   0.04512,
,,,0.078734000000,   0.04504,
,,,0.078736000000,   0.04520,
,,,0.078738000000,   0.04520,
,,,0.078740000000,   0.04520,
,,,0.078742000000,   0.04512,
,,,0.078744000000,   0.04512,
,,,0.078746000000,   0.04512,
,,,0.078748000000,   0.04512,
,,,0.078750000000,   0.04512,
,,,0.078752000000,   0.04504,
,,,0.078754000000,   0.04512,
,,,0.078756000000,   0.04504,
,,,0.078758000000,   0.04504,
,,,0.078760000000,   0.04504,
,,,0.078762000000,   0.04512,
,,,0.078764000000,   0.04512,
,,,0.078766000000,   0.04512,
,,,0.078768000000,   0.04512,
,,,0.078770000000,   0.04512,
,,,0.078772000000,   0.04504,
,,,0.078774000000,   0.04512,
,,,0.078776000000,   0.04504,
,,,0.078778000000,   0.04512,
,,,0.078780000000,   0.04512,
,,,0.078782000000,   0.04512,
,,,0.078784000000,   0.04504,
,,,0.078786000000,   0.04512,
,,,0.078788000000,   0.04512,
,,,0.078790000000,   0.04512,
,,,0.078792000000,   0.04512,
,,,0.078794000000,   0.04504,
,,,0.078796000000,   0.04512,
,,,0.078798000000,   0.04504,
,,,0.078800000000,   0.04512,
,,,0.078802000000,   0.04512,
,,,0.078804000000,   0.04512,
,,,0.078806000000,   0.04512,
,,,0.078808000000,   0.04504,
,,,0.078810000000,   0.04512,
,,,0.078812000000,   0.04512,
,,,0.078814000000,   0.04504,
,,,0.078816000000,   0.04504,
,,,0.078818000000,   0.04504,
,,,0.078820000000,   0.04504,
,,,0.078822000000,   0.04496,
,,,0.078824000000,   0.04504,
,,,0.078826000000,   0.04496,
,,,0.078828000000,   0.04504,
,,,0.078830000000,   0.04504,
,,,0.078832000000,   0.04504,
,,,0.078834000000,   0.04504,
,,,0.078836000000,   0.04504,
,,,0.078838000000,   0.04504,
,,,0.078840000000,   0.04504,
,,,0.078842000000,   0.04504,
,,,0.078844000000,   0.04496,
,,,0.078846000000,   0.04504,
,,,0.078848000000,   0.04504,
,,,0.078850000000,   0.04512,
,,,0.078852000000,   0.04504,
,,,0.078854000000,   0.04512,
,,,0.078856000000,   0.04512,
,,,0.078858000000,   0.04512,
,,,0.078860000000,   0.04512,
,,,0.078862000000,   0.04512,
,,,0.078864000000,   0.04504,
,,,0.078866000000,   0.04504,
,,,0.078868000000,   0.04512,
,,,0.078870000000,   0.04512,
,,,0.078872000000,   0.04512,
,,,0.078874000000,   0.04496,
,,,0.078876000000,   0.04504,
,,,0.078878000000,   0.04504,
,,,0.078880000000,   0.04504,
,,,0.078882000000,   0.04504,
,,,0.078884000000,   0.04504,
,,,0.078886000000,   0.04504,
,,,0.078888000000,   0.04504,
,,,0.078890000000,   0.04504,
,,,0.078892000000,   0.04512,
,,,0.078894000000,   0.04504,
,,,0.078896000000,   0.04512,
,,,0.078898000000,   0.04512,
,,,0.078900000000,   0.04504,
,,,0.078902000000,   0.04512,
,,,0.078904000000,   0.04504,
,,,0.078906000000,   0.04504,
,,,0.078908000000,   0.04504,
,,,0.078910000000,   0.04504,
,,,0.078912000000,   0.04504,
,,,0.078914000000,   0.04504,
,,,0.078916000000,   0.04504,
,,,0.078918000000,   0.04504,
,,,0.078920000000,   0.04504,
,,,0.078922000000,   0.04504,
,,,0.078924000000,   0.04504,
,,,0.078926000000,   0.04504,
,,,0.078928000000,   0.04504,
,,,0.078930000000,   0.04504,
,,,0.078932000000,   0.04504,
,,,0.078934000000,   0.04496,
,,,0.078936000000,   0.04496,
,,,0.078938000000,   0.04504,
,,,0.078940000000,   0.04504,
,,,0.078942000000,   0.04504,
,,,0.078944000000,   0.04504,
,,,0.078946000000,   0.04504,
,,,0.078948000000,   0.04504,
,,,0.078950000000,   0.04496,
,,,0.078952000000,   0.04496,
,,,0.078954000000,   0.04496,
,,,0.078956000000,   0.04496,
,,,0.078958000000,   0.04496,
,,,0.078960000000,   0.04496,
,,,0.078962000000,   0.04496,
,,,0.078964000000,   0.04496,
,,,0.078966000000,   0.04496,
,,,0.078968000000,   0.04496,
,,,0.078970000000,   0.04496,
,,,0.078972000000,   0.04496,
,,,0.078974000000,   0.04496,
,,,0.078976000000,   0.04496,
,,,0.078978000000,   0.04496,
,,,0.078980000000,   0.04496,
,,,0.078982000000,   0.04496,
,,,0.078984000000,   0.04496,
,,,0.078986000000,   0.04488,
,,,0.078988000000,   0.04496,
,,,0.078990000000,   0.04488,
,,,0.078992000000,   0.04496,
,,,0.078994000000,   0.04496,
,,,0.078996000000,   0.04496,
,,,0.078998000000,   0.04488,
,,,0.079000000000,   0.04488,
,,,0.079002000000,   0.04488,
,,,0.079004000000,   0.04488,
,,,0.079006000000,   0.04488,
,,,0.079008000000,   0.04488,
,,,0.079010000000,   0.04488,
,,,0.079012000000,   0.04488,
,,,0.079014000000,   0.04488,
,,,0.079016000000,   0.04488,
,,,0.079018000000,   0.04488,
,,,0.079020000000,   0.04488,
,,,0.079022000000,   0.04488,
,,,0.079024000000,   0.04488,
,,,0.079026000000,   0.04488,
,,,0.079028000000,   0.04488,
,,,0.079030000000,   0.04480,
,,,0.079032000000,   0.04480,
,,,0.079034000000,   0.04480,
,,,0.079036000000,   0.04480,
,,,0.079038000000,   0.04480,
,,,0.079040000000,   0.04480,
,,,0.079042000000,   0.04480,
,,,0.079044000000,   0.04480,
,,,0.079046000000,   0.04480,
,,,0.079048000000,   0.04480,
,,,0.079050000000,   0.04480,
,,,0.079052000000,   0.04480,
,,,0.079054000000,   0.04480,
,,,0.079056000000,   0.04480,
,,,0.079058000000,   0.04480,
,,,0.079060000000,   0.04480,
,,,0.079062000000,   0.04488,
,,,0.079064000000,   0.04488,
,,,0.079066000000,   0.04480,
,,,0.079068000000,   0.04480,
,,,0.079070000000,   0.04480,
,,,0.079072000000,   0.04488,
,,,0.079074000000,   0.04480,
,,,0.079076000000,   0.04480,
,,,0.079078000000,   0.04480,
,,,0.079080000000,   0.04480,
,,,0.079082000000,   0.04480,
,,,0.079084000000,   0.04480,
,,,0.079086000000,   0.04480,
,,,0.079088000000,   0.04480,
,,,0.079090000000,   0.04480,
,,,0.079092000000,   0.04480,
,,,0.079094000000,   0.04480,
,,,0.079096000000,   0.04480,
,,,0.079098000000,   0.04488,
,,,0.079100000000,   0.04488,
,,,0.079102000000,   0.04488,
,,,0.079104000000,   0.04488,
,,,0.079106000000,   0.04488,
,,,0.079108000000,   0.04480,
,,,0.079110000000,   0.04480,
,,,0.079112000000,   0.04480,
,,,0.079114000000,   0.04488,
,,,0.079116000000,   0.04488,
,,,0.079118000000,   0.04480,
,,,0.079120000000,   0.04480,
,,,0.079122000000,   0.04480,
,,,0.079124000000,   0.04480,
,,,0.079126000000,   0.04480,
,,,0.079128000000,   0.04488,
,,,0.079130000000,   0.04480,
,,,0.079132000000,   0.04480,
,,,0.079134000000,   0.04480,
,,,0.079136000000,   0.04480,
,,,0.079138000000,   0.04480,
,,,0.079140000000,   0.04480,
,,,0.079142000000,   0.04480,
,,,0.079144000000,   0.04472,
,,,0.079146000000,   0.04480,
,,,0.079148000000,   0.04480,
,,,0.079150000000,   0.04488,
,,,0.079152000000,   0.04480,
,,,0.079154000000,   0.04480,
,,,0.079156000000,   0.04480,
,,,0.079158000000,   0.04480,
,,,0.079160000000,   0.04480,
,,,0.079162000000,   0.04480,
,,,0.079164000000,   0.04472,
,,,0.079166000000,   0.04472,
,,,0.079168000000,   0.04472,
,,,0.079170000000,   0.04472,
,,,0.079172000000,   0.04472,
,,,0.079174000000,   0.04472,
,,,0.079176000000,   0.04472,
,,,0.079178000000,   0.04464,
,,,0.079180000000,   0.04472,
,,,0.079182000000,   0.04472,
,,,0.079184000000,   0.04464,
,,,0.079186000000,   0.04464,
,,,0.079188000000,   0.04464,
,,,0.079190000000,   0.04464,
,,,0.079192000000,   0.04464,
,,,0.079194000000,   0.04464,
,,,0.079196000000,   0.04472,
,,,0.079198000000,   0.04464,
,,,0.079200000000,   0.04472,
,,,0.079202000000,   0.04472,
,,,0.079204000000,   0.04480,
,,,0.079206000000,   0.04472,
,,,0.079208000000,   0.04472,
,,,0.079210000000,   0.04472,
,,,0.079212000000,   0.04472,
,,,0.079214000000,   0.04472,
,,,0.079216000000,   0.04464,
,,,0.079218000000,   0.04472,
,,,0.079220000000,   0.04472,
,,,0.079222000000,   0.04472,
,,,0.079224000000,   0.04464,
,,,0.079226000000,   0.04472,
,,,0.079228000000,   0.04472,
,,,0.079230000000,   0.04464,
,,,0.079232000000,   0.04464,
,,,0.079234000000,   0.04472,
,,,0.079236000000,   0.04464,
,,,0.079238000000,   0.04472,
,,,0.079240000000,   0.04472,
,,,0.079242000000,   0.04464,
,,,0.079244000000,   0.04464,
,,,0.079246000000,   0.04464,
